router contains 16 entries 
 
  Index   Key(hex)    Mask(hex)    Route(hex)    Src. Core -> [Cores][Links]
------------------------------------------------------------------------------
    0     01400       ffffff00      08         (0, 0, 2)      [] [W]
    1     01e00       ffffff00      08         (0, 0, 3)      [] [W]
    2     01900       ffffff00      08         (0, 0, 3)      [] [W]
    3     01300       ffffff00      08         (0, 0, 2)      [] [W]
    4     01700       ffffff00      08         (0, 0, 2)      [] [W]
    5     01800       ffffff00      08         (0, 0, 3)      [] [W]
    6     02100       ffffff00      08         (0, 0, 4)      [] [W]
    7     01600       ffffff00      08         (0, 0, 2)      [] [W]
    8     02000       ffffff00      08         (0, 0, 4)      [] [W]
    9     01a00       ffffff00      08         (0, 0, 3)      [] [W]
    10     01200       ffffff00      08         (0, 0, 2)      [] [W]
    11     01500       ffffff00      08         (0, 0, 2)      [] [W]
    12     01d00       ffffff00      08         (0, 0, 3)      [] [W]
    13     01b00       ffffff00      08         (0, 0, 3)      [] [W]
    14     01c00       ffffff00      08         (0, 0, 3)      [] [W]
    15     01f00       ffffff00      08         (0, 0, 3)      [] [W]
