router contains 1 entries 
 
  Index   Key(hex)    Mask(hex)    Route(hex)    Src. Core -> [Cores][Links]
------------------------------------------------------------------------------
    0     02200       ffffff00      010         (0, 0, 4)      [] [SW]
