%!PS-Adobe-3.0 EPSF-3.0
%%Title: /home/ruthvik/Desktop/demo/patterneps.eps
%%Creator: matplotlib version 1.4.2, http://matplotlib.org/
%%CreationDate: Fri Nov 10 19:36:16 2017
%%Orientation: portrait
%%BoundingBox: -558 -63 1170 855
%%EndComments
%%BeginProlog
/mpldict 8 dict def
mpldict begin
/m { moveto } bind def
/l { lineto } bind def
/r { rlineto } bind def
/c { curveto } bind def
/cl { closepath } bind def
/box {
m
1 index 0 r
0 exch r
neg 0 r
cl
} bind def
/clipbox {
box
clip
newpath
} bind def
%!PS-Adobe-3.0 Resource-Font
%%Title: DejaVu Sans
%%Copyright: Copyright (c) 2003 by Bitstream, Inc. All Rights Reserved. Copyright (c) 2006 by Tavmjong Bah. All Rights Reserved. DejaVu changes are in public domain 
%%Creator: Converted from TrueType to type 3 by PPR
25 dict begin
/_d{bind def}bind def
/_m{moveto}_d
/_l{lineto}_d
/_cl{closepath eofill}_d
/_c{curveto}_d
/_sc{7 -1 roll{setcachedevice}{pop pop pop pop pop pop}ifelse}_d
/_e{exec}_d
/FontName /DejaVuSans def
/PaintType 0 def
/FontMatrix[.001 0 0 .001 0 0]def
/FontBBox[-1021 -463 1793 1232]def
/FontType 3 def
/Encoding [ /space /parenleft /parenright /period /zero /one /two /three /four /five /six /seven /eight /nine /D /I /N /T /a /d /e /f /h /i /m /n /o /p /r /s /t /u ] def
/FontInfo 10 dict dup begin
/FamilyName (DejaVu Sans) def
/FullName (DejaVu Sans) def
/Notice (Copyright (c) 2003 by Bitstream, Inc. All Rights Reserved. Copyright (c) 2006 by Tavmjong Bah. All Rights Reserved. DejaVu changes are in public domain ) def
/Weight (Book) def
/Version (Version 2.35) def
/ItalicAngle 0.0 def
/isFixedPitch false def
/UnderlinePosition -130 def
/UnderlineThickness 90 def
end readonly def
/CharStrings 32 dict dup begin
/space{318 0 0 0 0 0 _sc
}_d
/parenleft{390 0 86 -131 310 759 _sc
310 759 _m
266 683 234 609 213 536 _c
191 463 181 389 181 314 _c
181 238 191 164 213 91 _c
234 17 266 -56 310 -131 _c
232 -131 _l
183 -54 146 20 122 94 _c
98 168 86 241 86 314 _c
86 386 98 459 122 533 _c
146 607 182 682 232 759 _c
310 759 _l
_cl}_d
/parenright{390 0 80 -131 304 759 _sc
80 759 _m
158 759 _l
206 682 243 607 267 533 _c
291 459 304 386 304 314 _c
304 241 291 168 267 94 _c
243 20 206 -54 158 -131 _c
80 -131 _l
123 -56 155 17 177 91 _c
198 164 209 238 209 314 _c
209 389 198 463 177 536 _c
155 609 123 683 80 759 _c
_cl}_d
/period{318 0 107 0 210 124 _sc
107 124 _m
210 124 _l
210 0 _l
107 0 _l
107 124 _l
_cl}_d
/zero{636 0 66 -13 570 742 _sc
318 664 _m
267 664 229 639 203 589 _c
177 539 165 464 165 364 _c
165 264 177 189 203 139 _c
229 89 267 64 318 64 _c
369 64 407 89 433 139 _c
458 189 471 264 471 364 _c
471 464 458 539 433 589 _c
407 639 369 664 318 664 _c
318 742 _m
399 742 461 709 505 645 _c
548 580 570 486 570 364 _c
570 241 548 147 505 83 _c
461 19 399 -13 318 -13 _c
236 -13 173 19 130 83 _c
87 147 66 241 66 364 _c
66 486 87 580 130 645 _c
173 709 236 742 318 742 _c
_cl}_d
/one{636 0 110 0 544 729 _sc
124 83 _m
285 83 _l
285 639 _l
110 604 _l
110 694 _l
284 729 _l
383 729 _l
383 83 _l
544 83 _l
544 0 _l
124 0 _l
124 83 _l
_cl}_d
/two{{636 0 73 0 536 742 _sc
192 83 _m
536 83 _l
536 0 _l
73 0 _l
73 83 _l
110 121 161 173 226 239 _c
290 304 331 346 348 365 _c
380 400 402 430 414 455 _c
426 479 433 504 433 528 _c
433 566 419 598 392 622 _c
365 646 330 659 286 659 _c
255 659 222 653 188 643 _c
154 632 117 616 78 594 _c
78 694 _l
118 710 155 722 189 730 _c
223 738 255 742 284 742 _c
}_e{359 742 419 723 464 685 _c
509 647 532 597 532 534 _c
532 504 526 475 515 449 _c
504 422 484 390 454 354 _c
446 344 420 317 376 272 _c
332 227 271 164 192 83 _c
_cl}_e}_d
/three{{636 0 76 -13 556 742 _sc
406 393 _m
453 383 490 362 516 330 _c
542 298 556 258 556 212 _c
556 140 531 84 482 45 _c
432 6 362 -13 271 -13 _c
240 -13 208 -10 176 -4 _c
144 1 110 10 76 22 _c
76 117 _l
103 101 133 89 166 81 _c
198 73 232 69 268 69 _c
330 69 377 81 409 105 _c
441 129 458 165 458 212 _c
458 254 443 288 413 312 _c
383 336 341 349 287 349 _c
}_e{202 349 _l
202 430 _l
291 430 _l
339 430 376 439 402 459 _c
428 478 441 506 441 543 _c
441 580 427 609 401 629 _c
374 649 336 659 287 659 _c
260 659 231 656 200 650 _c
169 644 135 635 98 623 _c
98 711 _l
135 721 170 729 203 734 _c
235 739 266 742 296 742 _c
370 742 429 725 473 691 _c
517 657 539 611 539 553 _c
539 513 527 479 504 451 _c
481 423 448 403 406 393 _c
_cl}_e}_d
/four{636 0 49 0 580 729 _sc
378 643 _m
129 254 _l
378 254 _l
378 643 _l
352 729 _m
476 729 _l
476 254 _l
580 254 _l
580 172 _l
476 172 _l
476 0 _l
378 0 _l
378 172 _l
49 172 _l
49 267 _l
352 729 _l
_cl}_d
/five{{636 0 77 -13 549 729 _sc
108 729 _m
495 729 _l
495 646 _l
198 646 _l
198 467 _l
212 472 227 476 241 478 _c
255 480 270 482 284 482 _c
365 482 429 459 477 415 _c
525 370 549 310 549 234 _c
549 155 524 94 475 51 _c
426 8 357 -13 269 -13 _c
238 -13 207 -10 175 -6 _c
143 -1 111 6 77 17 _c
77 116 _l
106 100 136 88 168 80 _c
199 72 232 69 267 69 _c
}_e{323 69 368 83 401 113 _c
433 143 450 183 450 234 _c
450 284 433 324 401 354 _c
368 384 323 399 267 399 _c
241 399 214 396 188 390 _c
162 384 135 375 108 363 _c
108 729 _l
_cl}_e}_d
/six{{636 0 70 -13 573 742 _sc
330 404 _m
286 404 251 388 225 358 _c
199 328 186 286 186 234 _c
186 181 199 139 225 109 _c
251 79 286 64 330 64 _c
374 64 409 79 435 109 _c
461 139 474 181 474 234 _c
474 286 461 328 435 358 _c
409 388 374 404 330 404 _c
526 713 _m
526 623 _l
501 635 476 644 451 650 _c
425 656 400 659 376 659 _c
310 659 260 637 226 593 _c
}_e{192 549 172 482 168 394 _c
187 422 211 444 240 459 _c
269 474 301 482 336 482 _c
409 482 467 459 509 415 _c
551 371 573 310 573 234 _c
573 159 550 99 506 54 _c
462 9 403 -13 330 -13 _c
246 -13 181 19 137 83 _c
92 147 70 241 70 364 _c
70 479 97 571 152 639 _c
206 707 280 742 372 742 _c
396 742 421 739 447 735 _c
472 730 498 723 526 713 _c
_cl}_e}_d
/seven{636 0 82 0 551 729 _sc
82 729 _m
551 729 _l
551 687 _l
286 0 _l
183 0 _l
432 646 _l
82 646 _l
82 729 _l
_cl}_d
/eight{{636 0 68 -13 568 742 _sc
318 346 _m
271 346 234 333 207 308 _c
180 283 167 249 167 205 _c
167 161 180 126 207 101 _c
234 76 271 64 318 64 _c
364 64 401 76 428 102 _c
455 127 469 161 469 205 _c
469 249 455 283 429 308 _c
402 333 365 346 318 346 _c
219 388 _m
177 398 144 418 120 447 _c
96 476 85 511 85 553 _c
85 611 105 657 147 691 _c
188 725 245 742 318 742 _c
}_e{390 742 447 725 489 691 _c
530 657 551 611 551 553 _c
551 511 539 476 515 447 _c
491 418 459 398 417 388 _c
464 377 501 355 528 323 _c
554 291 568 251 568 205 _c
568 134 546 80 503 43 _c
459 5 398 -13 318 -13 _c
237 -13 175 5 132 43 _c
89 80 68 134 68 205 _c
68 251 81 291 108 323 _c
134 355 171 377 219 388 _c
183 544 _m
183 506 194 476 218 455 _c
}_e{242 434 275 424 318 424 _c
360 424 393 434 417 455 _c
441 476 453 506 453 544 _c
453 582 441 611 417 632 _c
393 653 360 664 318 664 _c
275 664 242 653 218 632 _c
194 611 183 582 183 544 _c
_cl}_e}_d
/nine{{636 0 63 -13 566 742 _sc
110 15 _m
110 105 _l
134 93 159 84 185 78 _c
210 72 235 69 260 69 _c
324 69 374 90 408 134 _c
442 178 462 244 468 334 _c
448 306 424 284 396 269 _c
367 254 335 247 300 247 _c
226 247 168 269 126 313 _c
84 357 63 417 63 494 _c
63 568 85 628 129 674 _c
173 719 232 742 306 742 _c
390 742 455 709 499 645 _c
543 580 566 486 566 364 _c
}_e{566 248 538 157 484 89 _c
429 21 356 -13 264 -13 _c
239 -13 214 -10 189 -6 _c
163 -2 137 5 110 15 _c
306 324 _m
350 324 385 339 411 369 _c
437 399 450 441 450 494 _c
450 546 437 588 411 618 _c
385 648 350 664 306 664 _c
262 664 227 648 201 618 _c
175 588 162 546 162 494 _c
162 441 175 399 201 369 _c
227 339 262 324 306 324 _c
_cl}_e}_d
/D{770 0 98 0 711 729 _sc
197 648 _m
197 81 _l
316 81 _l
416 81 490 103 537 149 _c
583 195 607 267 607 365 _c
607 463 583 534 537 580 _c
490 625 416 648 316 648 _c
197 648 _l
98 729 _m
301 729 _l
442 729 546 699 612 641 _c
678 582 711 490 711 365 _c
711 239 677 147 611 88 _c
545 29 441 0 301 0 _c
98 0 _l
98 729 _l
_cl}_d
/I{295 0 98 0 197 729 _sc
98 729 _m
197 729 _l
197 0 _l
98 0 _l
98 729 _l
_cl}_d
/N{748 0 98 0 650 729 _sc
98 729 _m
231 729 _l
554 119 _l
554 729 _l
650 729 _l
650 0 _l
517 0 _l
194 610 _l
194 0 _l
98 0 _l
98 729 _l
_cl}_d
/T{611 0 -2 0 614 729 _sc
-2 729 _m
614 729 _l
614 646 _l
355 646 _l
355 0 _l
256 0 _l
256 646 _l
-2 646 _l
-2 729 _l
_cl}_d
/a{{613 0 60 -13 522 560 _sc
343 275 _m
270 275 220 266 192 250 _c
164 233 150 205 150 165 _c
150 133 160 107 181 89 _c
202 70 231 61 267 61 _c
317 61 357 78 387 114 _c
417 149 432 196 432 255 _c
432 275 _l
343 275 _l
522 312 _m
522 0 _l
432 0 _l
432 83 _l
411 49 385 25 355 10 _c
325 -5 287 -13 243 -13 _c
187 -13 142 2 109 33 _c
76 64 60 106 60 159 _c
}_e{60 220 80 266 122 298 _c
163 329 224 345 306 345 _c
432 345 _l
432 354 _l
432 395 418 427 391 450 _c
364 472 326 484 277 484 _c
245 484 215 480 185 472 _c
155 464 127 453 100 439 _c
100 522 _l
132 534 164 544 195 550 _c
226 556 256 560 286 560 _c
365 560 424 539 463 498 _c
502 457 522 395 522 312 _c
_cl}_e}_d
/d{{635 0 55 -13 544 760 _sc
454 464 _m
454 760 _l
544 760 _l
544 0 _l
454 0 _l
454 82 _l
435 49 411 25 382 10 _c
353 -5 319 -13 279 -13 _c
213 -13 159 13 117 65 _c
75 117 55 187 55 273 _c
55 359 75 428 117 481 _c
159 533 213 560 279 560 _c
319 560 353 552 382 536 _c
411 520 435 496 454 464 _c
148 273 _m
148 207 161 155 188 117 _c
215 79 253 61 301 61 _c
}_e{348 61 385 79 413 117 _c
440 155 454 207 454 273 _c
454 339 440 390 413 428 _c
385 466 348 485 301 485 _c
253 485 215 466 188 428 _c
161 390 148 339 148 273 _c
_cl}_e}_d
/e{{615 0 55 -13 562 560 _sc
562 296 _m
562 252 _l
149 252 _l
153 190 171 142 205 110 _c
238 78 284 62 344 62 _c
378 62 412 66 444 74 _c
476 82 509 95 541 113 _c
541 28 _l
509 14 476 3 442 -3 _c
408 -9 373 -13 339 -13 _c
251 -13 182 12 131 62 _c
80 112 55 181 55 268 _c
55 357 79 428 127 481 _c
175 533 241 560 323 560 _c
397 560 455 536 498 489 _c
}_e{540 441 562 377 562 296 _c
472 322 _m
471 371 457 410 431 440 _c
404 469 368 484 324 484 _c
274 484 234 469 204 441 _c
174 413 156 373 152 322 _c
472 322 _l
_cl}_e}_d
/f{352 0 23 0 371 760 _sc
371 760 _m
371 685 _l
285 685 _l
253 685 230 678 218 665 _c
205 652 199 629 199 595 _c
199 547 _l
347 547 _l
347 477 _l
199 477 _l
199 0 _l
109 0 _l
109 477 _l
23 477 _l
23 547 _l
109 547 _l
109 585 _l
109 645 123 690 151 718 _c
179 746 224 760 286 760 _c
371 760 _l
_cl}_d
/h{634 0 91 0 549 760 _sc
549 330 _m
549 0 _l
459 0 _l
459 327 _l
459 379 448 417 428 443 _c
408 469 378 482 338 482 _c
289 482 251 466 223 435 _c
195 404 181 362 181 309 _c
181 0 _l
91 0 _l
91 760 _l
181 760 _l
181 462 _l
202 494 227 519 257 535 _c
286 551 320 560 358 560 _c
420 560 468 540 500 501 _c
532 462 549 405 549 330 _c
_cl}_d
/i{278 0 94 0 184 760 _sc
94 547 _m
184 547 _l
184 0 _l
94 0 _l
94 547 _l
94 760 _m
184 760 _l
184 646 _l
94 646 _l
94 760 _l
_cl}_d
/m{{974 0 91 0 889 560 _sc
520 442 _m
542 482 569 511 600 531 _c
631 550 668 560 711 560 _c
767 560 811 540 842 500 _c
873 460 889 403 889 330 _c
889 0 _l
799 0 _l
799 327 _l
799 379 789 418 771 444 _c
752 469 724 482 686 482 _c
639 482 602 466 575 435 _c
548 404 535 362 535 309 _c
535 0 _l
445 0 _l
445 327 _l
445 379 435 418 417 444 _c
398 469 369 482 331 482 _c
}_e{285 482 248 466 221 435 _c
194 404 181 362 181 309 _c
181 0 _l
91 0 _l
91 547 _l
181 547 _l
181 462 _l
201 495 226 520 255 536 _c
283 552 317 560 357 560 _c
397 560 430 550 458 530 _c
486 510 506 480 520 442 _c
_cl}_e}_d
/n{634 0 91 0 549 560 _sc
549 330 _m
549 0 _l
459 0 _l
459 327 _l
459 379 448 417 428 443 _c
408 469 378 482 338 482 _c
289 482 251 466 223 435 _c
195 404 181 362 181 309 _c
181 0 _l
91 0 _l
91 547 _l
181 547 _l
181 462 _l
202 494 227 519 257 535 _c
286 551 320 560 358 560 _c
420 560 468 540 500 501 _c
532 462 549 405 549 330 _c
_cl}_d
/o{612 0 55 -13 557 560 _sc
306 484 _m
258 484 220 465 192 427 _c
164 389 150 338 150 273 _c
150 207 163 156 191 118 _c
219 80 257 62 306 62 _c
354 62 392 80 420 118 _c
448 156 462 207 462 273 _c
462 337 448 389 420 427 _c
392 465 354 484 306 484 _c
306 560 _m
384 560 445 534 490 484 _c
534 433 557 363 557 273 _c
557 183 534 113 490 63 _c
445 12 384 -13 306 -13 _c
227 -13 165 12 121 63 _c
77 113 55 183 55 273 _c
55 363 77 433 121 484 _c
165 534 227 560 306 560 _c
_cl}_d
/p{{635 0 91 -207 580 560 _sc
181 82 _m
181 -207 _l
91 -207 _l
91 547 _l
181 547 _l
181 464 _l
199 496 223 520 252 536 _c
281 552 316 560 356 560 _c
422 560 476 533 518 481 _c
559 428 580 359 580 273 _c
580 187 559 117 518 65 _c
476 13 422 -13 356 -13 _c
316 -13 281 -5 252 10 _c
223 25 199 49 181 82 _c
487 273 _m
487 339 473 390 446 428 _c
418 466 381 485 334 485 _c
}_e{286 485 249 466 222 428 _c
194 390 181 339 181 273 _c
181 207 194 155 222 117 _c
249 79 286 61 334 61 _c
381 61 418 79 446 117 _c
473 155 487 207 487 273 _c
_cl}_e}_d
/r{411 0 91 0 411 560 _sc
411 463 _m
401 469 390 473 378 476 _c
366 478 353 480 339 480 _c
288 480 249 463 222 430 _c
194 397 181 350 181 288 _c
181 0 _l
91 0 _l
91 547 _l
181 547 _l
181 462 _l
199 495 224 520 254 536 _c
284 552 321 560 365 560 _c
371 560 378 559 386 559 _c
393 558 401 557 411 555 _c
411 463 _l
_cl}_d
/s{{521 0 54 -13 472 560 _sc
443 531 _m
443 446 _l
417 458 391 468 364 475 _c
336 481 308 485 279 485 _c
234 485 200 478 178 464 _c
156 450 145 430 145 403 _c
145 382 153 366 169 354 _c
185 342 217 330 265 320 _c
296 313 _l
360 299 405 279 432 255 _c
458 230 472 195 472 151 _c
472 100 452 60 412 31 _c
372 1 316 -13 246 -13 _c
216 -13 186 -10 154 -5 _c
}_e{122 0 89 8 54 20 _c
54 113 _l
87 95 120 82 152 74 _c
184 65 216 61 248 61 _c
290 61 323 68 346 82 _c
368 96 380 117 380 144 _c
380 168 371 187 355 200 _c
339 213 303 226 247 238 _c
216 245 _l
160 257 119 275 95 299 _c
70 323 58 356 58 399 _c
58 450 76 490 112 518 _c
148 546 200 560 268 560 _c
301 560 332 557 362 552 _c
391 547 418 540 443 531 _c
}_e{_cl}_e}_d
/t{392 0 27 0 368 702 _sc
183 702 _m
183 547 _l
368 547 _l
368 477 _l
183 477 _l
183 180 _l
183 135 189 106 201 94 _c
213 81 238 75 276 75 _c
368 75 _l
368 0 _l
276 0 _l
206 0 158 13 132 39 _c
106 65 93 112 93 180 _c
93 477 _l
27 477 _l
27 547 _l
93 547 _l
93 702 _l
183 702 _l
_cl}_d
/u{634 0 85 -13 543 560 _sc
85 216 _m
85 547 _l
175 547 _l
175 219 _l
175 167 185 129 205 103 _c
225 77 255 64 296 64 _c
344 64 383 79 411 110 _c
439 141 453 183 453 237 _c
453 547 _l
543 547 _l
543 0 _l
453 0 _l
453 84 _l
431 50 405 26 377 10 _c
348 -5 315 -13 277 -13 _c
214 -13 166 6 134 45 _c
101 83 85 140 85 216 _c
311 560 _m
311 560 _l
_cl}_d
end readonly def

/BuildGlyph
 {exch begin
 CharStrings exch
 2 copy known not{pop /.notdef}if
 true 3 1 roll get exec
 end}_d

/BuildChar {
 1 index /Encoding get exch get
 1 index /BuildGlyph get exec
}_d

FontName currentdict end definefont pop
end
%%EndProlog
mpldict begin
-558 -63.9 translate
1728 919.8 0 0 clipbox
gsave
0 0 m
1728 0 l
1728 919.8 l
0 919.8 l
cl
1.000 setgray
fill
grestore
gsave
216 91.98 m
1555.2 91.98 l
1555.2 827.82 l
216 827.82 l
cl
1.000 setgray
fill
grestore
1.000 setlinewidth
0 setlinejoin
0 setlinecap
[] 0 setdash
1.000 0.000 0.000 setrgbcolor
gsave
1339 735.8 216 91.98 clipbox
216 91.98 m
216 827.82 l
483.84 827.82 l
483.84 91.98 l
cl
gsave
fill
grestore
stroke
grestore
gsave
1339 735.8 216 91.98 clipbox
1287.36 91.98 m
1287.36 827.82 l
1555.2 827.82 l
1555.2 91.98 l
cl
gsave
fill
grestore
stroke
grestore
0.500 setlinewidth
1 setlinejoin
0.000 0.000 1.000 setrgbcolor
gsave
1339 735.8 216 91.98 clipbox
/o {
gsave
newpath
translate
0.5 setlinewidth
1 setlinejoin
0 setlinecap
-3 0 m
3 0 l
0 -3 m
0 3 l
gsave
0.000 0.000 1.000 setrgbcolor
fill
grestore
stroke
grestore
} bind def
815.962 93.0312 o
269.568 95.1336 o
285.638 95.1336 o
1340.93 95.1336 o
1357 95.1336 o
746.323 96.1848 o
564.192 97.236 o
992.736 97.236 o
805.248 98.2872 o
1153.44 98.2872 o
1212.36 99.3384 o
1024.88 100.39 o
676.685 101.441 o
1121.3 102.492 o
971.309 103.543 o
285.638 105.646 o
1357 105.646 o
998.093 106.697 o
569.549 107.748 o
655.258 107.748 o
896.314 107.748 o
387.418 109.85 o
430.272 109.85 o
1458.78 109.85 o
1501.63 109.85 o
226.714 111.953 o
783.821 111.953 o
1298.07 111.953 o
307.066 113.004 o
1378.43 113.004 o
655.258 114.055 o
1287.36 115.106 o
553.478 116.158 o
676.685 118.26 o
558.835 120.362 o
751.68 120.362 o
767.75 122.465 o
1217.72 123.516 o
548.122 124.567 o
323.136 126.67 o
494.554 126.67 o
832.032 126.67 o
1394.5 126.67 o
1067.73 129.823 o
864.173 130.874 o
580.262 132.977 o
923.098 132.977 o
1148.08 136.13 o
478.483 137.182 o
1549.84 137.182 o
574.906 138.233 o
933.811 141.386 o
419.558 142.438 o
960.595 142.438 o
1490.92 142.438 o
939.168 143.489 o
1046.3 144.54 o
1190.94 144.54 o
1030.23 146.642 o
660.614 147.694 o
826.675 147.694 o
1083.8 147.694 o
253.498 148.745 o
440.986 148.745 o
1324.86 148.745 o
1512.35 148.745 o
783.821 149.796 o
971.309 149.796 o
307.066 150.847 o
1378.43 150.847 o
998.093 151.898 o
1164.15 151.898 o
392.774 154.001 o
982.022 154.001 o
1464.13 154.001 o
1239.15 156.103 o
269.568 157.154 o
360.634 157.154 o
1340.93 157.154 o
1431.99 157.154 o
414.202 159.257 o
719.539 159.257 o
1132.01 159.257 o
1180.22 159.257 o
1485.56 159.257 o
564.192 160.308 o
960.595 161.359 o
1148.08 161.359 o
1105.23 162.41 o
542.765 164.513 o
1115.94 164.513 o
1212.36 166.615 o
703.469 168.718 o
1169.51 170.82 o
949.882 172.922 o
1073.09 172.922 o
382.061 173.974 o
462.413 173.974 o
1453.42 173.974 o
1533.77 173.974 o
1051.66 175.025 o
1105.23 175.025 o
939.168 176.076 o
612.403 177.127 o
1271.29 177.127 o
1164.15 179.23 o
665.971 180.281 o
864.173 180.281 o
805.248 181.332 o
424.915 182.383 o
1496.28 182.383 o
1142.73 183.434 o
730.253 184.486 o
1019.52 185.537 o
414.202 187.639 o
1132.01 187.639 o
1485.56 187.639 o
312.422 188.69 o
1383.78 188.69 o
848.102 189.742 o
976.666 189.742 o
382.061 190.793 o
408.845 190.793 o
1453.42 190.793 o
1480.2 190.793 o
960.595 192.895 o
1148.08 192.895 o
1035.59 193.946 o
853.459 196.049 o
1030.23 196.049 o
1233.79 196.049 o
1014.16 197.1 o
574.906 201.305 o
494.554 202.356 o
730.253 202.356 o
923.098 202.356 o
714.182 203.407 o
1287.36 204.458 o
258.854 205.51 o
1330.21 205.51 o
349.92 206.561 o
692.755 206.561 o
1421.28 206.561 o
290.995 208.663 o
703.469 208.663 o
1362.36 208.663 o
451.699 209.714 o
1523.06 209.714 o
815.962 211.817 o
612.403 212.868 o
1014.16 212.868 o
601.69 214.97 o
880.243 214.97 o
992.736 214.97 o
971.309 216.022 o
419.558 218.124 o
708.826 218.124 o
1490.92 218.124 o
264.211 220.226 o
1260.58 220.226 o
1335.57 220.226 o
430.272 221.278 o
858.816 221.278 o
1501.63 221.278 o
955.238 222.329 o
419.558 223.38 o
751.68 223.38 o
1490.92 223.38 o
1008.81 227.585 o
408.845 228.636 o
1480.2 228.636 o
1201.65 231.79 o
387.418 232.841 o
1180.22 232.841 o
1458.78 232.841 o
430.272 234.943 o
719.539 234.943 o
789.178 234.943 o
1217.72 234.943 o
1501.63 234.943 o
248.141 235.994 o
478.483 235.994 o
1319.5 235.994 o
1549.84 235.994 o
537.408 237.046 o
623.117 237.046 o
880.243 237.046 o
521.338 238.097 o
1282 238.097 o
1271.29 243.353 o
1105.23 244.404 o
312.422 247.558 o
939.168 247.558 o
1383.78 247.558 o
1185.58 250.711 o
751.68 251.762 o
1089.16 252.814 o
269.568 253.865 o
285.638 253.865 o
1132.01 253.865 o
1340.93 253.865 o
1357 253.865 o
414.202 257.018 o
515.981 257.018 o
1040.95 257.018 o
1485.56 257.018 o
596.333 258.07 o
478.483 259.121 o
499.91 259.121 o
778.464 259.121 o
1549.84 259.121 o
730.253 262.274 o
998.093 262.274 o
408.845 263.326 o
783.821 263.326 o
1480.2 263.326 o
537.408 264.377 o
376.704 265.428 o
1448.06 265.428 o
237.427 267.53 o
1308.79 267.53 o
1148.08 269.633 o
1190.94 269.633 o
671.328 271.735 o
767.75 272.786 o
799.891 273.838 o
1148.08 273.838 o
548.122 276.991 o
387.418 278.042 o
1458.78 278.042 o
848.102 282.247 o
1271.29 282.247 o
665.971 283.298 o
773.107 285.401 o
1067.73 285.401 o
628.474 286.452 o
1083.8 286.452 o
521.338 289.606 o
435.629 290.657 o
1506.99 290.657 o
558.835 291.708 o
1014.16 292.759 o
698.112 293.81 o
890.957 293.81 o
1024.88 293.81 o
403.488 294.862 o
564.192 294.862 o
1474.85 294.862 o
982.022 295.913 o
419.558 296.964 o
1490.92 296.964 o
258.854 299.066 o
1330.21 299.066 o
269.568 300.118 o
682.042 300.118 o
1062.37 300.118 o
1239.15 300.118 o
1340.93 300.118 o
515.981 302.22 o
939.168 308.527 o
1233.79 309.578 o
842.746 310.63 o
687.398 312.732 o
1142.73 312.732 o
1223.08 312.732 o
328.493 313.783 o
644.544 313.783 o
890.957 313.783 o
1399.85 313.783 o
274.925 314.834 o
1346.28 314.834 o
548.122 315.886 o
301.709 316.937 o
1201.65 316.937 o
1373.07 316.937 o
499.91 317.988 o
805.248 317.988 o
880.243 317.988 o
1287.36 319.039 o
564.192 320.09 o
1062.37 321.142 o
1132.01 323.244 o
237.427 325.346 o
612.403 325.346 o
1158.8 325.346 o
1308.79 325.346 o
1260.58 326.398 o
623.117 327.449 o
607.046 330.602 o
1233.79 330.602 o
789.178 333.756 o
1153.44 333.756 o
660.614 334.807 o
928.454 334.807 o
344.563 336.91 o
515.981 336.91 o
1415.92 336.91 o
392.774 337.961 o
1464.13 337.961 o
355.277 339.012 o
708.826 339.012 o
837.389 339.012 o
1426.64 339.012 o
382.061 340.063 o
740.966 340.063 o
1453.42 340.063 o
1276.65 342.166 o
1083.8 343.217 o
676.685 344.268 o
789.178 344.268 o
639.187 345.319 o
912.384 347.422 o
1057.02 347.422 o
307.066 348.473 o
1378.43 348.473 o
628.474 349.524 o
387.418 351.626 o
1276.65 351.626 o
1458.78 351.626 o
483.84 353.729 o
815.962 353.729 o
1555.2 353.729 o
226.714 355.831 o
596.333 355.831 o
757.037 355.831 o
1298.07 355.831 o
371.347 356.882 o
590.976 356.882 o
1442.71 356.882 o
944.525 357.934 o
976.666 357.934 o
832.032 358.985 o
660.614 360.036 o
574.906 361.087 o
885.6 361.087 o
687.398 364.241 o
890.957 364.241 o
789.178 366.343 o
880.243 366.343 o
917.741 366.343 o
665.971 368.446 o
1046.3 368.446 o
869.53 369.497 o
639.187 370.548 o
724.896 370.548 o
832.032 370.548 o
1003.45 371.599 o
1228.44 371.599 o
1212.36 372.65 o
949.882 373.702 o
574.906 374.753 o
296.352 375.804 o
1110.59 375.804 o
1367.71 375.804 o
783.821 377.906 o
532.051 378.958 o
740.966 378.958 o
901.67 382.111 o
574.906 383.162 o
290.995 384.214 o
1362.36 384.214 o
1132.01 385.265 o
617.76 387.367 o
955.238 387.367 o
724.896 390.521 o
719.539 393.674 o
457.056 394.726 o
1528.42 394.726 o
542.765 395.777 o
1062.37 396.828 o
714.182 397.879 o
890.957 397.879 o
1217.72 397.879 o
1073.09 398.93 o
590.976 401.033 o
1223.08 401.033 o
826.675 403.135 o
1137.37 403.135 o
317.779 405.238 o
890.957 405.238 o
1389.14 405.238 o
253.498 410.494 o
740.966 410.494 o
1324.86 410.494 o
548.122 412.596 o
714.182 412.596 o
440.986 413.647 o
1512.35 413.647 o
682.042 414.698 o
960.595 414.698 o
987.379 415.75 o
1255.22 415.75 o
1051.66 417.852 o
328.493 418.903 o
944.525 418.903 o
987.379 418.903 o
1399.85 418.903 o
692.755 422.057 o
778.464 422.057 o
371.347 424.159 o
1442.71 424.159 o
269.568 425.21 o
1051.66 425.21 o
1340.93 425.21 o
789.178 426.262 o
312.422 427.313 o
671.328 427.313 o
1383.78 427.313 o
403.488 428.364 o
874.886 428.364 o
1121.3 428.364 o
1474.85 428.364 o
1110.59 431.518 o
730.253 433.62 o
1030.23 433.62 o
505.267 434.671 o
730.253 437.825 o
1158.8 438.876 o
1057.02 439.927 o
553.478 443.081 o
676.685 443.081 o
971.309 443.081 o
682.042 444.132 o
1110.59 445.183 o
430.272 446.234 o
799.891 446.234 o
1501.63 446.234 o
708.826 447.286 o
628.474 448.337 o
671.328 448.337 o
1228.44 448.337 o
1249.86 448.337 o
398.131 449.388 o
542.765 449.388 o
665.971 449.388 o
853.459 449.388 o
1164.15 449.388 o
1469.49 449.388 o
462.413 450.439 o
907.027 450.439 o
1533.77 450.439 o
623.117 452.542 o
676.685 452.542 o
724.896 453.593 o
526.694 454.644 o
607.046 454.644 o
633.83 454.644 o
917.741 455.695 o
987.379 455.695 o
1083.8 455.695 o
290.995 456.746 o
1362.36 456.746 o
596.333 457.798 o
590.976 458.849 o
1271.29 458.849 o
762.394 463.054 o
1030.23 464.105 o
1282 464.105 o
537.408 465.156 o
751.68 466.207 o
826.675 466.207 o
1062.37 467.258 o
499.91 469.361 o
574.906 469.361 o
580.262 470.412 o
628.474 470.412 o
944.525 470.412 o
226.714 471.463 o
1298.07 471.463 o
826.675 472.514 o
1003.45 473.566 o
1132.01 473.566 o
1083.8 474.617 o
585.619 475.668 o
280.282 476.719 o
569.549 476.719 o
1351.64 476.719 o
810.605 477.77 o
446.342 478.822 o
1517.7 478.822 o
553.478 479.873 o
655.258 481.975 o
767.75 481.975 o
869.53 483.026 o
944.525 483.026 o
1185.58 483.026 o
344.563 484.078 o
435.629 484.078 o
585.619 484.078 o
907.027 484.078 o
1415.92 484.078 o
1506.99 484.078 o
360.634 485.129 o
1153.44 485.129 o
1431.99 485.129 o
730.253 486.18 o
762.394 488.282 o
1201.65 488.282 o
344.563 489.334 o
912.384 489.334 o
1003.45 489.334 o
1089.16 489.334 o
1249.86 489.334 o
1415.92 489.334 o
655.258 491.436 o
799.891 494.59 o
949.882 494.59 o
730.253 495.641 o
724.896 496.692 o
740.966 496.692 o
1046.3 496.692 o
917.741 497.743 o
344.563 498.794 o
1415.92 498.794 o
467.77 499.846 o
483.84 499.846 o
1260.58 499.846 o
1539.13 499.846 o
1555.2 499.846 o
665.971 500.897 o
612.403 501.948 o
365.99 504.05 o
1437.35 504.05 o
1067.73 506.153 o
1148.08 507.204 o
923.098 508.255 o
976.666 508.255 o
687.398 509.306 o
644.544 510.358 o
1142.73 510.358 o
274.925 511.409 o
1346.28 511.409 o
301.709 513.511 o
1373.07 513.511 o
740.966 514.562 o
1158.8 515.614 o
392.774 517.716 o
521.338 517.716 o
1464.13 517.716 o
773.107 518.767 o
328.493 519.818 o
542.765 519.818 o
1399.85 519.818 o
264.211 520.87 o
1185.58 520.87 o
1335.57 520.87 o
1110.59 521.921 o
398.131 522.972 o
548.122 522.972 o
1003.45 522.972 o
1469.49 522.972 o
890.957 524.023 o
907.027 524.023 o
1073.09 524.023 o
917.741 525.074 o
398.131 526.126 o
1469.49 526.126 o
1099.87 527.177 o
1180.22 527.177 o
778.464 528.228 o
708.826 530.33 o
719.539 531.382 o
515.981 532.433 o
290.995 533.484 o
1362.36 533.484 o
248.141 534.535 o
1319.5 534.535 o
917.741 536.638 o
1046.3 536.638 o
280.282 537.689 o
789.178 537.689 o
1351.64 537.689 o
510.624 538.74 o
987.379 539.791 o
1099.87 540.842 o
1046.3 542.945 o
1094.52 543.996 o
1094.52 545.047 o
762.394 546.098 o
467.77 547.15 o
805.248 547.15 o
1539.13 547.15 o
1040.95 548.201 o
965.952 549.252 o
414.202 550.303 o
655.258 550.303 o
1485.56 550.303 o
355.277 551.354 o
1426.64 551.354 o
665.971 552.406 o
333.85 553.457 o
998.093 553.457 o
1405.21 553.457 o
1099.87 554.508 o
644.544 555.559 o
274.925 556.61 o
1132.01 556.61 o
1346.28 556.61 o
355.277 557.662 o
767.75 557.662 o
1426.64 557.662 o
349.92 558.713 o
1421.28 558.713 o
419.558 559.764 o
912.384 559.764 o
1490.92 559.764 o
537.408 560.815 o
1212.36 560.815 o
408.845 567.122 o
1169.51 567.122 o
1480.2 567.122 o
242.784 569.225 o
767.75 569.225 o
1314.14 569.225 o
1046.3 570.276 o
323.136 572.378 o
1394.5 572.378 o
451.699 573.43 o
1523.06 573.43 o
526.694 574.481 o
1185.58 574.481 o
382.061 575.532 o
789.178 575.532 o
1453.42 575.532 o
832.032 576.583 o
1094.52 577.634 o
387.418 579.737 o
885.6 579.737 o
1458.78 579.737 o
440.986 580.788 o
515.981 580.788 o
810.605 580.788 o
1512.35 580.788 o
290.995 581.839 o
473.126 581.839 o
1174.87 581.839 o
1362.36 581.839 o
1544.49 581.839 o
649.901 584.993 o
1180.22 584.993 o
612.403 586.044 o
719.539 587.095 o
387.418 588.146 o
1458.78 588.146 o
548.122 589.198 o
933.811 589.198 o
1158.8 590.249 o
998.093 591.3 o
285.638 593.402 o
1357 593.402 o
858.816 594.454 o
992.736 594.454 o
719.539 595.505 o
1030.23 595.505 o
1201.65 595.505 o
1228.44 595.505 o
226.714 596.556 o
1185.58 596.556 o
1298.07 596.556 o
799.891 598.658 o
349.92 599.71 o
874.886 599.71 o
1421.28 599.71 o
408.845 600.761 o
1271.29 600.761 o
1480.2 600.761 o
1024.88 601.812 o
1271.29 601.812 o
1035.59 602.863 o
1024.88 603.914 o
307.066 604.966 o
1099.87 604.966 o
1378.43 604.966 o
290.995 606.017 o
344.563 606.017 o
440.986 606.017 o
1362.36 606.017 o
1415.92 606.017 o
1512.35 606.017 o
280.282 607.068 o
1351.64 607.068 o
226.714 608.119 o
837.389 608.119 o
1298.07 608.119 o
1255.22 609.17 o
1244.51 611.273 o
633.83 612.324 o
762.394 613.375 o
933.811 613.375 o
858.816 615.478 o
355.277 616.529 o
1426.64 616.529 o
264.211 617.58 o
1335.57 617.58 o
564.192 618.631 o
907.027 618.631 o
708.826 619.682 o
1207.01 619.682 o
1265.93 620.734 o
955.238 621.785 o
1217.72 623.887 o
633.83 624.938 o
864.173 624.938 o
590.976 627.041 o
232.07 630.194 o
269.568 630.194 o
585.619 630.194 o
1303.43 630.194 o
1340.93 630.194 o
290.995 631.246 o
467.77 631.246 o
1362.36 631.246 o
1539.13 631.246 o
944.525 632.297 o
1057.02 633.348 o
419.558 634.399 o
676.685 634.399 o
714.182 634.399 o
907.027 634.399 o
1490.92 634.399 o
258.854 638.604 o
440.986 638.604 o
457.056 638.604 o
1330.21 638.604 o
1512.35 638.604 o
1528.42 638.604 o
687.398 639.655 o
1083.8 639.655 o
751.68 640.706 o
424.915 641.758 o
1164.15 641.758 o
1496.28 641.758 o
307.066 642.809 o
1378.43 642.809 o
451.699 643.86 o
623.117 643.86 o
998.093 643.86 o
1148.08 643.86 o
1523.06 643.86 o
553.478 644.911 o
1287.36 644.911 o
869.53 645.962 o
564.192 647.014 o
237.427 648.065 o
1308.79 648.065 o
853.459 651.218 o
478.483 652.27 o
724.896 652.27 o
1549.84 652.27 o
376.704 653.321 o
1008.81 653.321 o
1287.36 653.321 o
1448.06 653.321 o
1110.59 654.372 o
1282 654.372 o
301.709 657.526 o
757.037 657.526 o
1373.07 657.526 o
1024.88 660.679 o
998.093 662.782 o
1094.52 663.833 o
248.141 665.935 o
285.638 665.935 o
971.309 665.935 o
1249.86 665.935 o
1319.5 665.935 o
1357 665.935 o
853.459 670.14 o
907.027 670.14 o
1067.73 670.14 o
821.318 671.191 o
483.84 672.242 o
1555.2 672.242 o
623.117 673.294 o
880.243 673.294 o
1062.37 673.294 o
724.896 677.498 o
1024.88 677.498 o
1180.22 678.55 o
596.333 679.601 o
446.342 680.652 o
1105.23 680.652 o
1517.7 680.652 o
435.629 681.703 o
574.906 681.703 o
617.76 681.703 o
1282 681.703 o
1506.99 681.703 o
826.675 682.754 o
976.666 682.754 o
532.051 685.908 o
424.915 686.959 o
564.192 686.959 o
832.032 686.959 o
939.168 686.959 o
1496.28 686.959 o
323.136 688.01 o
1394.5 688.01 o
371.347 690.113 o
483.84 690.113 o
1442.71 690.113 o
1555.2 690.113 o
349.92 692.215 o
387.418 692.215 o
585.619 692.215 o
815.962 692.215 o
864.173 692.215 o
1421.28 692.215 o
1458.78 692.215 o
526.694 693.266 o
424.915 695.369 o
890.957 695.369 o
1496.28 695.369 o
403.488 696.42 o
478.483 696.42 o
1474.85 696.42 o
1549.84 696.42 o
253.498 697.471 o
290.995 697.471 o
1244.51 697.471 o
1324.86 697.471 o
1362.36 697.471 o
499.91 698.522 o
558.835 699.574 o
757.037 700.625 o
1201.65 700.625 o
1244.51 704.83 o
328.493 705.881 o
751.68 705.881 o
1399.85 705.881 o
821.318 710.086 o
762.394 711.137 o
1244.51 712.188 o
237.427 713.239 o
317.779 713.239 o
457.056 713.239 o
698.112 713.239 o
1308.79 713.239 o
1389.14 713.239 o
1528.42 713.239 o
473.126 714.29 o
590.976 714.29 o
1544.49 714.29 o
917.741 715.342 o
1137.37 715.342 o
440.986 716.393 o
1512.35 716.393 o
724.896 717.444 o
1282 717.444 o
874.886 718.495 o
1099.87 718.495 o
1169.51 719.546 o
692.755 720.598 o
1255.22 722.7 o
237.427 723.751 o
323.136 723.751 o
703.469 723.751 o
1308.79 723.751 o
1394.5 723.751 o
1094.52 724.802 o
730.253 725.854 o
307.066 726.905 o
982.022 726.905 o
998.093 726.905 o
1378.43 726.905 o
757.037 727.956 o
687.398 730.058 o
810.605 730.058 o
735.61 733.212 o
976.666 733.212 o
1148.08 736.366 o
1265.93 736.366 o
328.493 737.417 o
1399.85 737.417 o
703.469 739.519 o
1014.16 741.622 o
1067.73 741.622 o
1265.93 741.622 o
580.262 742.673 o
842.746 743.724 o
1169.51 743.724 o
258.854 744.775 o
607.046 744.775 o
982.022 744.775 o
1330.21 744.775 o
826.675 745.826 o
510.624 747.929 o
815.962 748.98 o
392.774 750.031 o
896.314 750.031 o
912.384 750.031 o
1019.52 750.031 o
1040.95 750.031 o
1464.13 750.031 o
328.493 754.236 o
1399.85 754.236 o
665.971 755.287 o
1046.3 755.287 o
890.957 756.338 o
1062.37 756.338 o
253.498 758.441 o
703.469 758.441 o
1249.86 758.441 o
1324.86 758.441 o
365.99 760.543 o
815.962 760.543 o
971.309 760.543 o
1180.22 760.543 o
1437.35 760.543 o
1035.59 762.646 o
1073.09 762.646 o
564.192 763.697 o
767.75 763.697 o
960.595 763.697 o
1201.65 763.697 o
885.6 764.748 o
1132.01 764.748 o
612.403 766.85 o
864.173 766.85 o
1099.87 766.85 o
885.6 767.902 o
671.328 770.004 o
955.238 770.004 o
987.379 770.004 o
1153.44 770.004 o
676.685 771.055 o
1105.23 771.055 o
1260.58 771.055 o
1014.16 772.106 o
264.211 773.158 o
424.915 773.158 o
1335.57 773.158 o
1496.28 773.158 o
960.595 774.209 o
1276.65 775.26 o
510.624 776.311 o
1024.88 778.414 o
901.67 781.567 o
1062.37 781.567 o
1126.66 782.618 o
1255.22 784.721 o
312.422 785.772 o
1233.79 785.772 o
1383.78 785.772 o
971.309 786.823 o
1078.44 786.823 o
403.488 787.874 o
933.811 787.874 o
1474.85 787.874 o
708.826 788.926 o
1260.58 788.926 o
532.051 789.977 o
542.765 791.028 o
585.619 793.13 o
1244.51 793.13 o
633.83 794.182 o
285.638 795.233 o
1099.87 795.233 o
1357 795.233 o
1105.23 796.284 o
290.995 797.335 o
751.68 797.335 o
1362.36 797.335 o
446.342 800.489 o
574.906 800.489 o
1517.7 800.489 o
515.981 801.54 o
232.07 802.591 o
446.342 802.591 o
1303.43 802.591 o
1517.7 802.591 o
1014.16 803.642 o
890.957 804.694 o
955.238 804.694 o
917.741 808.898 o
1078.44 808.898 o
232.07 809.95 o
1303.43 809.95 o
789.178 811.001 o
307.066 812.052 o
1040.95 812.052 o
1378.43 812.052 o
671.328 813.103 o
515.981 815.206 o
1035.59 816.257 o
499.91 819.41 o
998.093 820.462 o
1228.44 820.462 o
1217.72 821.513 o
939.168 822.564 o
1040.95 824.666 o
1260.58 824.666 o
499.91 825.718 o
971.309 825.718 o
1223.08 825.718 o
505.267 826.769 o
569.549 826.769 o
1067.73 826.769 o
grestore
1.000 setlinewidth
0 setlinejoin
2 setlinecap
0.000 setgray
gsave
216 827.82 m
1555.2 827.82 l
stroke
grestore
gsave
1555.2 91.98 m
1555.2 827.82 l
stroke
grestore
gsave
216 91.98 m
1555.2 91.98 l
stroke
grestore
gsave
216 91.98 m
216 827.82 l
stroke
grestore
0.500 setlinewidth
1 setlinejoin
0 setlinecap
gsave
/o {
gsave
newpath
translate
0.5 setlinewidth
1 setlinejoin
0 setlinecap
0 0 m
0 4 l
gsave
0.000 setgray
fill
grestore
stroke
grestore
} bind def
216 91.98 o
grestore
gsave
/o {
gsave
newpath
translate
0.5 setlinewidth
1 setlinejoin
0 setlinecap
0 0 m
0 -4 l
gsave
0.000 setgray
fill
grestore
stroke
grestore
} bind def
216 827.82 o
grestore
/DejaVuSans findfont
38.000 scalefont
setfont
gsave
206.421875 59.105000 translate
0.000000 rotate
0.000000 0.000000 m /zero glyphshow
grestore
gsave
/o {
gsave
newpath
translate
0.5 setlinewidth
1 setlinejoin
0 setlinecap
0 0 m
0 4 l
gsave
0.000 setgray
fill
grestore
stroke
grestore
} bind def
483.84 91.98 o
grestore
gsave
/o {
gsave
newpath
translate
0.5 setlinewidth
1 setlinejoin
0 setlinecap
0 0 m
0 -4 l
gsave
0.000 setgray
fill
grestore
stroke
grestore
} bind def
483.84 827.82 o
grestore
gsave
462.394688 59.105000 translate
0.000000 rotate
0.000000 0.000000 m /five glyphshow
24.176758 0.000000 m /zero glyphshow
grestore
gsave
/o {
gsave
newpath
translate
0.5 setlinewidth
1 setlinejoin
0 setlinecap
0 0 m
0 4 l
gsave
0.000 setgray
fill
grestore
stroke
grestore
} bind def
751.68 91.98 o
grestore
gsave
/o {
gsave
newpath
translate
0.5 setlinewidth
1 setlinejoin
0 setlinecap
0 0 m
0 -4 l
gsave
0.000 setgray
fill
grestore
stroke
grestore
} bind def
751.68 827.82 o
grestore
gsave
718.765938 59.105000 translate
0.000000 rotate
0.000000 0.000000 m /one glyphshow
24.176758 0.000000 m /zero glyphshow
48.353516 0.000000 m /zero glyphshow
grestore
gsave
/o {
gsave
newpath
translate
0.5 setlinewidth
1 setlinejoin
0 setlinecap
0 0 m
0 4 l
gsave
0.000 setgray
fill
grestore
stroke
grestore
} bind def
1019.52 91.98 o
grestore
gsave
/o {
gsave
newpath
translate
0.5 setlinewidth
1 setlinejoin
0 setlinecap
0 0 m
0 -4 l
gsave
0.000 setgray
fill
grestore
stroke
grestore
} bind def
1019.52 827.82 o
grestore
gsave
986.605938 59.105000 translate
0.000000 rotate
0.000000 0.000000 m /one glyphshow
24.176758 0.000000 m /five glyphshow
48.353516 0.000000 m /zero glyphshow
grestore
gsave
/o {
gsave
newpath
translate
0.5 setlinewidth
1 setlinejoin
0 setlinecap
0 0 m
0 4 l
gsave
0.000 setgray
fill
grestore
stroke
grestore
} bind def
1287.36 91.98 o
grestore
gsave
/o {
gsave
newpath
translate
0.5 setlinewidth
1 setlinejoin
0 setlinecap
0 0 m
0 -4 l
gsave
0.000 setgray
fill
grestore
stroke
grestore
} bind def
1287.36 827.82 o
grestore
gsave
1253.750625 59.105000 translate
0.000000 rotate
0.000000 0.000000 m /two glyphshow
24.176758 0.000000 m /zero glyphshow
48.353516 0.000000 m /zero glyphshow
grestore
gsave
/o {
gsave
newpath
translate
0.5 setlinewidth
1 setlinejoin
0 setlinecap
0 0 m
0 4 l
gsave
0.000 setgray
fill
grestore
stroke
grestore
} bind def
1555.2 91.98 o
grestore
gsave
/o {
gsave
newpath
translate
0.5 setlinewidth
1 setlinejoin
0 setlinecap
0 0 m
0 -4 l
gsave
0.000 setgray
fill
grestore
stroke
grestore
} bind def
1555.2 827.82 o
grestore
gsave
1521.590625 59.105000 translate
0.000000 rotate
0.000000 0.000000 m /two glyphshow
24.176758 0.000000 m /five glyphshow
48.353516 0.000000 m /zero glyphshow
grestore
gsave
797.420313 17.323750 translate
0.000000 rotate
0.000000 0.000000 m /T glyphshow
22.086914 0.000000 m /i glyphshow
32.644531 0.000000 m /m glyphshow
69.661133 0.000000 m /e glyphshow
93.040039 0.000000 m /parenleft glyphshow
107.865234 0.000000 m /m glyphshow
144.881836 0.000000 m /s glyphshow
164.679688 0.000000 m /parenright glyphshow
grestore
gsave
/o {
gsave
newpath
translate
0.5 setlinewidth
1 setlinejoin
0 setlinecap
0 0 m
4 0 l
gsave
0.000 setgray
fill
grestore
stroke
grestore
} bind def
216 91.98 o
grestore
gsave
/o {
gsave
newpath
translate
0.5 setlinewidth
1 setlinejoin
0 setlinecap
0 0 m
-4 0 l
gsave
0.000 setgray
fill
grestore
stroke
grestore
} bind def
1555.2 91.98 o
grestore
gsave
192.843750 81.495625 translate
0.000000 rotate
0.000000 0.000000 m /zero glyphshow
grestore
gsave
/o {
gsave
newpath
translate
0.5 setlinewidth
1 setlinejoin
0 setlinecap
0 0 m
4 0 l
gsave
0.000 setgray
fill
grestore
stroke
grestore
} bind def
216 197.1 o
grestore
gsave
/o {
gsave
newpath
translate
0.5 setlinewidth
1 setlinejoin
0 setlinecap
0 0 m
-4 0 l
gsave
0.000 setgray
fill
grestore
stroke
grestore
} bind def
1555.2 197.1 o
grestore
gsave
146.171875 186.615625 translate
0.000000 rotate
0.000000 0.000000 m /one glyphshow
24.176758 0.000000 m /zero glyphshow
48.353516 0.000000 m /zero glyphshow
grestore
gsave
/o {
gsave
newpath
translate
0.5 setlinewidth
1 setlinejoin
0 setlinecap
0 0 m
4 0 l
gsave
0.000 setgray
fill
grestore
stroke
grestore
} bind def
216 302.22 o
grestore
gsave
/o {
gsave
newpath
translate
0.5 setlinewidth
1 setlinejoin
0 setlinecap
0 0 m
-4 0 l
gsave
0.000 setgray
fill
grestore
stroke
grestore
} bind def
1555.2 302.22 o
grestore
gsave
144.781250 291.735625 translate
0.000000 rotate
0.000000 0.000000 m /two glyphshow
24.176758 0.000000 m /zero glyphshow
48.353516 0.000000 m /zero glyphshow
grestore
gsave
/o {
gsave
newpath
translate
0.5 setlinewidth
1 setlinejoin
0 setlinecap
0 0 m
4 0 l
gsave
0.000 setgray
fill
grestore
stroke
grestore
} bind def
216 407.34 o
grestore
gsave
/o {
gsave
newpath
translate
0.5 setlinewidth
1 setlinejoin
0 setlinecap
0 0 m
-4 0 l
gsave
0.000 setgray
fill
grestore
stroke
grestore
} bind def
1555.2 407.34 o
grestore
gsave
144.890625 396.855625 translate
0.000000 rotate
0.000000 0.000000 m /three glyphshow
24.176758 0.000000 m /zero glyphshow
48.353516 0.000000 m /zero glyphshow
grestore
gsave
/o {
gsave
newpath
translate
0.5 setlinewidth
1 setlinejoin
0 setlinecap
0 0 m
4 0 l
gsave
0.000 setgray
fill
grestore
stroke
grestore
} bind def
216 512.46 o
grestore
gsave
/o {
gsave
newpath
translate
0.5 setlinewidth
1 setlinejoin
0 setlinecap
0 0 m
-4 0 l
gsave
0.000 setgray
fill
grestore
stroke
grestore
} bind def
1555.2 512.46 o
grestore
gsave
143.859375 501.975625 translate
0.000000 rotate
0.000000 0.000000 m /four glyphshow
24.176758 0.000000 m /zero glyphshow
48.353516 0.000000 m /zero glyphshow
grestore
gsave
/o {
gsave
newpath
translate
0.5 setlinewidth
1 setlinejoin
0 setlinecap
0 0 m
4 0 l
gsave
0.000 setgray
fill
grestore
stroke
grestore
} bind def
216 617.58 o
grestore
gsave
/o {
gsave
newpath
translate
0.5 setlinewidth
1 setlinejoin
0 setlinecap
0 0 m
-4 0 l
gsave
0.000 setgray
fill
grestore
stroke
grestore
} bind def
1555.2 617.58 o
grestore
gsave
144.937500 607.095625 translate
0.000000 rotate
0.000000 0.000000 m /five glyphshow
24.176758 0.000000 m /zero glyphshow
48.353516 0.000000 m /zero glyphshow
grestore
gsave
/o {
gsave
newpath
translate
0.5 setlinewidth
1 setlinejoin
0 setlinecap
0 0 m
4 0 l
gsave
0.000 setgray
fill
grestore
stroke
grestore
} bind def
216 722.7 o
grestore
gsave
/o {
gsave
newpath
translate
0.5 setlinewidth
1 setlinejoin
0 setlinecap
0 0 m
-4 0 l
gsave
0.000 setgray
fill
grestore
stroke
grestore
} bind def
1555.2 722.7 o
grestore
gsave
144.656250 712.215625 translate
0.000000 rotate
0.000000 0.000000 m /six glyphshow
24.176758 0.000000 m /zero glyphshow
48.353516 0.000000 m /zero glyphshow
grestore
gsave
/o {
gsave
newpath
translate
0.5 setlinewidth
1 setlinejoin
0 setlinecap
0 0 m
4 0 l
gsave
0.000 setgray
fill
grestore
stroke
grestore
} bind def
216 827.82 o
grestore
gsave
/o {
gsave
newpath
translate
0.5 setlinewidth
1 setlinejoin
0 setlinecap
0 0 m
-4 0 l
gsave
0.000 setgray
fill
grestore
stroke
grestore
} bind def
1555.2 827.82 o
grestore
gsave
145.125000 817.335625 translate
0.000000 rotate
0.000000 0.000000 m /seven glyphshow
24.176758 0.000000 m /zero glyphshow
48.353516 0.000000 m /zero glyphshow
grestore
gsave
130.953125 329.095312 translate
90.000000 rotate
0.000000 0.000000 m /N glyphshow
28.425781 0.000000 m /e glyphshow
51.804688 0.000000 m /u glyphshow
75.888672 0.000000 m /r glyphshow
90.636719 0.000000 m /o glyphshow
113.885742 0.000000 m /n glyphshow
137.969727 0.000000 m /space glyphshow
150.048828 0.000000 m /I glyphshow
161.255859 0.000000 m /D glyphshow
190.516602 0.000000 m /space glyphshow
202.595703 0.000000 m /N glyphshow
231.021484 0.000000 m /o glyphshow
253.645508 0.000000 m /period glyphshow
grestore
1.000 setlinewidth
1 setlinecap
1.000 0.000 0.000 setrgbcolor
gsave
231.958 111.965 m
230.876 111.962 230.167 111.961 229.831 111.96 c
stroke
grestore
gsave
244.248 104.793 m
229.831 111.96 l
244.215 119.193 l
stroke
grestore
0.000 setgray
/DejaVuSans findfont
36.000 scalefont
setfont
gsave
235.957096 102.120407 translate
0.000000 rotate
0.000000 0.000000 m /one glyphshow
22.904297 0.000000 m /nine glyphshow
45.808594 0.000000 m /period glyphshow
57.251953 0.000000 m /zero glyphshow
grestore
1.000 0.000 0.000 setrgbcolor
gsave
277.988 265.719 m
265.133 266.293 252.65 266.851 240.54 267.391 c
stroke
grestore
gsave
254.604 259.556 m
240.54 267.391 l
255.246 273.942 l
stroke
grestore
0.000 setgray
gsave
231.626655 255.692707 translate
0.000000 rotate
0.000000 0.000000 m /one glyphshow
22.904297 0.000000 m /six glyphshow
45.808594 0.000000 m /seven glyphshow
68.712891 0.000000 m /period glyphshow
80.156250 0.000000 m /zero glyphshow
grestore
1.000 0.000 0.000 setrgbcolor
gsave
354.748 337.141 m
316.304 333.276 278.23 329.448 240.527 325.658 c
stroke
grestore
gsave
255.575 319.935 m
240.527 325.658 l
254.134 334.262 l
stroke
grestore
0.000 setgray
gsave
358.740100 332.532644 translate
0.000000 rotate
0.000000 0.000000 m /two glyphshow
22.904297 0.000000 m /two glyphshow
45.808594 0.000000 m /two glyphshow
68.712891 0.000000 m /period glyphshow
80.156250 0.000000 m /zero glyphshow
grestore
1.000 0.000 0.000 setrgbcolor
gsave
789.635 278.981 m
602.654 304.508 416.043 329.984 229.801 355.41 c
stroke
grestore
gsave
243.095 346.328 m
229.801 355.41 l
245.043 360.596 l
stroke
grestore
0.000 setgray
gsave
793.615472 261.808601 translate
0.000000 rotate
0.000000 0.000000 m /two glyphshow
22.904297 0.000000 m /five glyphshow
45.808594 0.000000 m /one glyphshow
68.712891 0.000000 m /period glyphshow
80.156250 0.000000 m /zero glyphshow
grestore
1.000 0.000 0.000 setrgbcolor
gsave
584.317 457.669 m
465.782 462.242 347.62 466.799 229.831 471.343 c
stroke
grestore
gsave
243.942 463.593 m
229.831 471.343 l
244.497 477.983 l
stroke
grestore
0.000 setgray
gsave
588.315879 445.689005 translate
0.000000 rotate
0.000000 0.000000 m /three glyphshow
22.904297 0.000000 m /six glyphshow
45.808594 0.000000 m /one glyphshow
68.712891 0.000000 m /period glyphshow
80.156250 0.000000 m /zero glyphshow
grestore
1.000 0.000 0.000 setrgbcolor
gsave
958.846 520.424 m
720.824 536.645 483.174 552.842 245.896 569.013 c
stroke
grestore
gsave
259.773 560.85 m
245.896 569.013 l
260.752 575.217 l
stroke
grestore
0.000 setgray
gsave
962.845099 506.843165 translate
0.000000 rotate
0.000000 0.000000 m /four glyphshow
22.904297 0.000000 m /five glyphshow
45.808594 0.000000 m /four glyphshow
68.712891 0.000000 m /period glyphshow
80.156250 0.000000 m /zero glyphshow
grestore
1.000 0.000 0.000 setrgbcolor
gsave
1123.93 535.159 m
825.52 555.579 527.486 575.974 229.824 596.343 c
stroke
grestore
gsave
243.699 588.177 m
229.824 596.343 l
244.682 602.543 l
stroke
grestore
0.000 setgray
gsave
1127.921441 521.564285 translate
0.000000 rotate
0.000000 0.000000 m /four glyphshow
22.904297 0.000000 m /eight glyphshow
45.808594 0.000000 m /zero glyphshow
68.712891 0.000000 m /period glyphshow
80.156250 0.000000 m /zero glyphshow
grestore
1.000 0.000 0.000 setrgbcolor
gsave
519.903 669.271 m
422.825 649.023 326.111 628.851 229.763 608.755 c
stroke
grestore
gsave
245.33 604.647 m
229.763 608.755 l
242.39 618.744 l
stroke
grestore
0.000 setgray
gsave
523.859457 670.472991 translate
0.000000 rotate
0.000000 0.000000 m /four glyphshow
22.904297 0.000000 m /nine glyphshow
45.808594 0.000000 m /one glyphshow
68.712891 0.000000 m /period glyphshow
80.156250 0.000000 m /zero glyphshow
grestore
1.000 0.000 0.000 setrgbcolor
gsave
271.959 586.775 m
259.113 600.758 246.519 614.466 234.178 627.9 c
stroke
grestore
gsave
238.618 612.425 m
234.178 627.9 l
249.222 622.167 l
stroke
grestore
0.000 setgray
gsave
242.205933 555.946359 translate
0.000000 rotate
0.000000 0.000000 m /five glyphshow
22.904297 0.000000 m /one glyphshow
45.808594 0.000000 m /two glyphshow
68.712891 0.000000 m /period glyphshow
80.156250 0.000000 m /zero glyphshow
grestore
1.000 0.000 0.000 setrgbcolor
gsave
679.238 594.844 m
532.629 612.504 386.391 630.12 240.523 647.692 c
stroke
grestore
gsave
253.958 638.821 m
240.523 647.692 l
255.68 653.118 l
stroke
grestore
0.000 setgray
gsave
683.225437 578.529777 translate
0.000000 rotate
0.000000 0.000000 m /five glyphshow
22.904297 0.000000 m /two glyphshow
45.808594 0.000000 m /nine glyphshow
68.712891 0.000000 m /period glyphshow
80.156250 0.000000 m /zero glyphshow
grestore
1.000 0.000 0.000 setrgbcolor
gsave
355.693 635.406 m
316.828 660.984 278.275 686.357 240.032 711.525 c
stroke
grestore
gsave
248.103 697.594 m
240.032 711.525 l
256.019 709.623 l
stroke
grestore
0.000 setgray
gsave
337.931375 604.946247 translate
0.000000 rotate
0.000000 0.000000 m /five glyphshow
22.904297 0.000000 m /nine glyphshow
45.808594 0.000000 m /one glyphshow
68.712891 0.000000 m /period glyphshow
80.156250 0.000000 m /zero glyphshow
grestore
1.000 0.000 0.000 setrgbcolor
gsave
264.362 740.525 m
255.95 735.287 247.855 730.245 240.076 725.401 c
stroke
grestore
gsave
256.106 726.901 m
240.076 725.401 l
248.493 739.125 l
stroke
grestore
0.000 setgray
gsave
216.979049 731.643313 translate
0.000000 rotate
0.000000 0.000000 m /six glyphshow
22.904297 0.000000 m /zero glyphshow
45.808594 0.000000 m /one glyphshow
68.712891 0.000000 m /period glyphshow
80.156250 0.000000 m /zero glyphshow
grestore
1.000 0.000 0.000 setrgbcolor
gsave
1068.11 700.196 m
790.093 734.247 512.445 768.252 235.167 802.212 c
stroke
grestore
gsave
248.585 793.315 m
235.167 802.212 l
250.336 807.608 l
stroke
grestore
0.000 setgray
gsave
1072.092172 683.760286 translate
0.000000 rotate
0.000000 0.000000 m /six glyphshow
22.904297 0.000000 m /seven glyphshow
45.808594 0.000000 m /six glyphshow
68.712891 0.000000 m /period glyphshow
80.156250 0.000000 m /zero glyphshow
grestore
1.000 0.000 0.000 setrgbcolor
gsave
649.911 794.491 m
511.297 799.619 373.055 804.734 235.186 809.834 c
stroke
grestore
gsave
249.31 802.107 m
235.186 809.834 l
249.843 816.497 l
stroke
grestore
0.000 setgray
gsave
653.906853 782.590225 translate
0.000000 rotate
0.000000 0.000000 m /six glyphshow
22.904297 0.000000 m /eight glyphshow
45.808594 0.000000 m /three glyphshow
68.712891 0.000000 m /period glyphshow
80.156250 0.000000 m /zero glyphshow
grestore
/DejaVuSans findfont
38.000 scalefont
setfont
gsave
442.468750 872.529000 translate
0.000000 rotate
0.000000 0.000000 m /N glyphshow
28.425781 0.000000 m /e glyphshow
51.804688 0.000000 m /u glyphshow
75.888672 0.000000 m /r glyphshow
90.636719 0.000000 m /o glyphshow
113.885742 0.000000 m /n glyphshow
137.969727 0.000000 m /s glyphshow
157.767578 0.000000 m /space glyphshow
169.846680 0.000000 m /t glyphshow
184.746094 0.000000 m /h glyphshow
208.830078 0.000000 m /a glyphshow
232.116211 0.000000 m /t glyphshow
247.015625 0.000000 m /space glyphshow
259.094727 0.000000 m /f glyphshow
272.472656 0.000000 m /i glyphshow
283.030273 0.000000 m /r glyphshow
297.778320 0.000000 m /e glyphshow
321.157227 0.000000 m /d glyphshow
345.278320 0.000000 m /space glyphshow
357.357422 0.000000 m /i glyphshow
367.915039 0.000000 m /n glyphshow
391.999023 0.000000 m /space glyphshow
404.078125 0.000000 m /f glyphshow
417.456055 0.000000 m /i glyphshow
428.013672 0.000000 m /r glyphshow
443.636719 0.000000 m /s glyphshow
463.434570 0.000000 m /t glyphshow
478.333984 0.000000 m /space glyphshow
490.413086 0.000000 m /five glyphshow
514.589844 0.000000 m /m glyphshow
551.606445 0.000000 m /s glyphshow
571.404297 0.000000 m /space glyphshow
583.483398 0.000000 m /o glyphshow
606.732422 0.000000 m /f glyphshow
620.110352 0.000000 m /space glyphshow
632.189453 0.000000 m /t glyphshow
647.088867 0.000000 m /h glyphshow
671.172852 0.000000 m /e glyphshow
694.551758 0.000000 m /space glyphshow
706.630859 0.000000 m /p glyphshow
730.751953 0.000000 m /a glyphshow
754.038086 0.000000 m /t glyphshow
768.937500 0.000000 m /t glyphshow
783.836914 0.000000 m /e glyphshow
807.215820 0.000000 m /r glyphshow
822.213867 0.000000 m /n glyphshow
grestore

end
showpage
