%!PS-Adobe-3.0 EPSF-3.0
%%Title: /home/ruthvik/Desktop/Summer 2017/spinnaker_demo/demo/weightevolseps.eps
%%Creator: matplotlib version 1.5.1, http://matplotlib.org/
%%CreationDate: Fri Nov 10 18:59:57 2017
%%Orientation: portrait
%%BoundingBox: -558 -63 1170 855
%%EndComments
%%BeginProlog
/mpldict 8 dict def
mpldict begin
/m { moveto } bind def
/l { lineto } bind def
/r { rlineto } bind def
/c { curveto } bind def
/cl { closepath } bind def
/box {
m
1 index 0 r
0 exch r
neg 0 r
cl
} bind def
/clipbox {
box
clip
newpath
} bind def
%!PS-Adobe-3.0 Resource-Font
%%Title: Bitstream Vera Sans
%%Copyright: Copyright (c) 2003 by Bitstream, Inc. All Rights Reserved.
%%Creator: Converted from TrueType to type 3 by PPR
25 dict begin
/_d{bind def}bind def
/_m{moveto}_d
/_l{lineto}_d
/_cl{closepath eofill}_d
/_c{curveto}_d
/_sc{7 -1 roll{setcachedevice}{pop pop pop pop pop pop}ifelse}_d
/_e{exec}_d
/FontName /BitstreamVeraSans-Roman def
/PaintType 0 def
/FontMatrix[.001 0 0 .001 0 0]def
/FontBBox[-183 -236 1287 928]def
/FontType 3 def
/Encoding [ /space /period /zero /one /two /three /four /five /six /seven /eight /nine /D /I /N /W /e /g /h /i /n /o /r /s /t /u ] def
/FontInfo 10 dict dup begin
/FamilyName (Bitstream Vera Sans) def
/FullName (Bitstream Vera Sans) def
/Notice (Copyright (c) 2003 by Bitstream, Inc. All Rights Reserved. Bitstream Vera is a trademark of Bitstream, Inc.) def
/Weight (Roman) def
/Version (Release 1.10) def
/ItalicAngle 0.0 def
/isFixedPitch false def
/UnderlinePosition -213 def
/UnderlineThickness 143 def
end readonly def
/CharStrings 26 dict dup begin
/space{318 0 0 0 0 0 _sc
}_d
/period{318 0 107 0 210 124 _sc
107 124 _m
210 124 _l
210 0 _l
107 0 _l
107 124 _l
_cl}_d
/zero{636 0 66 -13 570 742 _sc
318 664 _m
267 664 229 639 203 589 _c
177 539 165 464 165 364 _c
165 264 177 189 203 139 _c
229 89 267 64 318 64 _c
369 64 407 89 433 139 _c
458 189 471 264 471 364 _c
471 464 458 539 433 589 _c
407 639 369 664 318 664 _c
318 742 _m
399 742 461 709 505 645 _c
548 580 570 486 570 364 _c
570 241 548 147 505 83 _c
461 19 399 -13 318 -13 _c
236 -13 173 19 130 83 _c
87 147 66 241 66 364 _c
66 486 87 580 130 645 _c
173 709 236 742 318 742 _c
_cl}_d
/one{636 0 110 0 544 729 _sc
124 83 _m
285 83 _l
285 639 _l
110 604 _l
110 694 _l
284 729 _l
383 729 _l
383 83 _l
544 83 _l
544 0 _l
124 0 _l
124 83 _l
_cl}_d
/two{{636 0 73 0 536 742 _sc
192 83 _m
536 83 _l
536 0 _l
73 0 _l
73 83 _l
110 121 161 173 226 239 _c
290 304 331 346 348 365 _c
380 400 402 430 414 455 _c
426 479 433 504 433 528 _c
433 566 419 598 392 622 _c
365 646 330 659 286 659 _c
255 659 222 653 188 643 _c
154 632 117 616 78 594 _c
78 694 _l
118 710 155 722 189 730 _c
223 738 255 742 284 742 _c
}_e{359 742 419 723 464 685 _c
509 647 532 597 532 534 _c
532 504 526 475 515 449 _c
504 422 484 390 454 354 _c
446 344 420 317 376 272 _c
332 227 271 164 192 83 _c
_cl}_e}_d
/three{{636 0 76 -13 556 742 _sc
406 393 _m
453 383 490 362 516 330 _c
542 298 556 258 556 212 _c
556 140 531 84 482 45 _c
432 6 362 -13 271 -13 _c
240 -13 208 -10 176 -4 _c
144 1 110 10 76 22 _c
76 117 _l
103 101 133 89 166 81 _c
198 73 232 69 268 69 _c
330 69 377 81 409 105 _c
441 129 458 165 458 212 _c
458 254 443 288 413 312 _c
383 336 341 349 287 349 _c
}_e{202 349 _l
202 430 _l
291 430 _l
339 430 376 439 402 459 _c
428 478 441 506 441 543 _c
441 580 427 609 401 629 _c
374 649 336 659 287 659 _c
260 659 231 656 200 650 _c
169 644 135 635 98 623 _c
98 711 _l
135 721 170 729 203 734 _c
235 739 266 742 296 742 _c
370 742 429 725 473 691 _c
517 657 539 611 539 553 _c
539 513 527 479 504 451 _c
481 423 448 403 406 393 _c
_cl}_e}_d
/four{636 0 49 0 580 729 _sc
378 643 _m
129 254 _l
378 254 _l
378 643 _l
352 729 _m
476 729 _l
476 254 _l
580 254 _l
580 172 _l
476 172 _l
476 0 _l
378 0 _l
378 172 _l
49 172 _l
49 267 _l
352 729 _l
_cl}_d
/five{{636 0 77 -13 549 729 _sc
108 729 _m
495 729 _l
495 646 _l
198 646 _l
198 467 _l
212 472 227 476 241 478 _c
255 480 270 482 284 482 _c
365 482 429 459 477 415 _c
525 370 549 310 549 234 _c
549 155 524 94 475 51 _c
426 8 357 -13 269 -13 _c
238 -13 207 -10 175 -6 _c
143 -1 111 6 77 17 _c
77 116 _l
106 100 136 88 168 80 _c
199 72 232 69 267 69 _c
}_e{323 69 368 83 401 113 _c
433 143 450 183 450 234 _c
450 284 433 324 401 354 _c
368 384 323 399 267 399 _c
241 399 214 396 188 390 _c
162 384 135 375 108 363 _c
108 729 _l
_cl}_e}_d
/six{{636 0 70 -13 573 742 _sc
330 404 _m
286 404 251 388 225 358 _c
199 328 186 286 186 234 _c
186 181 199 139 225 109 _c
251 79 286 64 330 64 _c
374 64 409 79 435 109 _c
461 139 474 181 474 234 _c
474 286 461 328 435 358 _c
409 388 374 404 330 404 _c
526 713 _m
526 623 _l
501 635 476 644 451 650 _c
425 656 400 659 376 659 _c
310 659 260 637 226 593 _c
}_e{192 549 172 482 168 394 _c
187 422 211 444 240 459 _c
269 474 301 482 336 482 _c
409 482 467 459 509 415 _c
551 371 573 310 573 234 _c
573 159 550 99 506 54 _c
462 9 403 -13 330 -13 _c
246 -13 181 19 137 83 _c
92 147 70 241 70 364 _c
70 479 97 571 152 639 _c
206 707 280 742 372 742 _c
396 742 421 739 447 735 _c
472 730 498 723 526 713 _c
_cl}_e}_d
/seven{636 0 82 0 551 729 _sc
82 729 _m
551 729 _l
551 687 _l
286 0 _l
183 0 _l
432 646 _l
82 646 _l
82 729 _l
_cl}_d
/eight{{636 0 68 -13 568 742 _sc
318 346 _m
271 346 234 333 207 308 _c
180 283 167 249 167 205 _c
167 161 180 126 207 101 _c
234 76 271 64 318 64 _c
364 64 401 76 428 102 _c
455 127 469 161 469 205 _c
469 249 455 283 429 308 _c
402 333 365 346 318 346 _c
219 388 _m
177 398 144 418 120 447 _c
96 476 85 511 85 553 _c
85 611 105 657 147 691 _c
188 725 245 742 318 742 _c
}_e{390 742 447 725 489 691 _c
530 657 551 611 551 553 _c
551 511 539 476 515 447 _c
491 418 459 398 417 388 _c
464 377 501 355 528 323 _c
554 291 568 251 568 205 _c
568 134 546 80 503 43 _c
459 5 398 -13 318 -13 _c
237 -13 175 5 132 43 _c
89 80 68 134 68 205 _c
68 251 81 291 108 323 _c
134 355 171 377 219 388 _c
183 544 _m
183 506 194 476 218 455 _c
}_e{242 434 275 424 318 424 _c
360 424 393 434 417 455 _c
441 476 453 506 453 544 _c
453 582 441 611 417 632 _c
393 653 360 664 318 664 _c
275 664 242 653 218 632 _c
194 611 183 582 183 544 _c
_cl}_e}_d
/nine{{636 0 63 -13 566 742 _sc
110 15 _m
110 105 _l
134 93 159 84 185 78 _c
210 72 235 69 260 69 _c
324 69 374 90 408 134 _c
442 178 462 244 468 334 _c
448 306 424 284 396 269 _c
367 254 335 247 300 247 _c
226 247 168 269 126 313 _c
84 357 63 417 63 494 _c
63 568 85 628 129 674 _c
173 719 232 742 306 742 _c
390 742 455 709 499 645 _c
543 580 566 486 566 364 _c
}_e{566 248 538 157 484 89 _c
429 21 356 -13 264 -13 _c
239 -13 214 -10 189 -6 _c
163 -2 137 5 110 15 _c
306 324 _m
350 324 385 339 411 369 _c
437 399 450 441 450 494 _c
450 546 437 588 411 618 _c
385 648 350 664 306 664 _c
262 664 227 648 201 618 _c
175 588 162 546 162 494 _c
162 441 175 399 201 369 _c
227 339 262 324 306 324 _c
_cl}_e}_d
/D{770 0 98 0 711 729 _sc
197 648 _m
197 81 _l
316 81 _l
416 81 490 103 537 149 _c
583 195 607 267 607 365 _c
607 463 583 534 537 580 _c
490 625 416 648 316 648 _c
197 648 _l
98 729 _m
301 729 _l
442 729 546 699 612 641 _c
678 582 711 490 711 365 _c
711 239 677 147 611 88 _c
545 29 441 0 301 0 _c
98 0 _l
98 729 _l
_cl}_d
/I{295 0 98 0 197 729 _sc
98 729 _m
197 729 _l
197 0 _l
98 0 _l
98 729 _l
_cl}_d
/N{748 0 98 0 650 729 _sc
98 729 _m
231 729 _l
554 119 _l
554 729 _l
650 729 _l
650 0 _l
517 0 _l
194 610 _l
194 0 _l
98 0 _l
98 729 _l
_cl}_d
/W{989 0 33 0 956 729 _sc
33 729 _m
133 729 _l
286 113 _l
439 729 _l
550 729 _l
703 113 _l
856 729 _l
956 729 _l
773 0 _l
649 0 _l
495 633 _l
340 0 _l
216 0 _l
33 729 _l
_cl}_d
/e{{615 0 55 -13 562 560 _sc
562 296 _m
562 252 _l
149 252 _l
153 190 171 142 205 110 _c
238 78 284 62 344 62 _c
378 62 412 66 444 74 _c
476 82 509 95 541 113 _c
541 28 _l
509 14 476 3 442 -3 _c
408 -9 373 -13 339 -13 _c
251 -13 182 12 131 62 _c
80 112 55 181 55 268 _c
55 357 79 428 127 481 _c
175 533 241 560 323 560 _c
397 560 455 536 498 489 _c
}_e{540 441 562 377 562 296 _c
472 322 _m
471 371 457 410 431 440 _c
404 469 368 484 324 484 _c
274 484 234 469 204 441 _c
174 413 156 373 152 322 _c
472 322 _l
_cl}_e}_d
/g{{635 0 55 -207 544 560 _sc
454 280 _m
454 344 440 395 414 431 _c
387 467 349 485 301 485 _c
253 485 215 467 188 431 _c
161 395 148 344 148 280 _c
148 215 161 165 188 129 _c
215 93 253 75 301 75 _c
349 75 387 93 414 129 _c
440 165 454 215 454 280 _c
544 68 _m
544 -24 523 -93 482 -139 _c
440 -184 377 -207 292 -207 _c
260 -207 231 -204 203 -200 _c
175 -195 147 -188 121 -178 _c
}_e{121 -91 _l
147 -105 173 -115 199 -122 _c
225 -129 251 -133 278 -133 _c
336 -133 380 -117 410 -87 _c
439 -56 454 -10 454 52 _c
454 96 _l
435 64 411 40 382 24 _c
353 8 319 0 279 0 _c
211 0 157 25 116 76 _c
75 127 55 195 55 280 _c
55 364 75 432 116 483 _c
157 534 211 560 279 560 _c
319 560 353 552 382 536 _c
411 520 435 496 454 464 _c
454 547 _l
544 547 _l
}_e{544 68 _l
_cl}_e}_d
/h{634 0 91 0 549 760 _sc
549 330 _m
549 0 _l
459 0 _l
459 327 _l
459 379 448 417 428 443 _c
408 469 378 482 338 482 _c
289 482 251 466 223 435 _c
195 404 181 362 181 309 _c
181 0 _l
91 0 _l
91 760 _l
181 760 _l
181 462 _l
202 494 227 519 257 535 _c
286 551 320 560 358 560 _c
420 560 468 540 500 501 _c
532 462 549 405 549 330 _c
_cl}_d
/i{278 0 94 0 184 760 _sc
94 547 _m
184 547 _l
184 0 _l
94 0 _l
94 547 _l
94 760 _m
184 760 _l
184 646 _l
94 646 _l
94 760 _l
_cl}_d
/n{634 0 91 0 549 560 _sc
549 330 _m
549 0 _l
459 0 _l
459 327 _l
459 379 448 417 428 443 _c
408 469 378 482 338 482 _c
289 482 251 466 223 435 _c
195 404 181 362 181 309 _c
181 0 _l
91 0 _l
91 547 _l
181 547 _l
181 462 _l
202 494 227 519 257 535 _c
286 551 320 560 358 560 _c
420 560 468 540 500 501 _c
532 462 549 405 549 330 _c
_cl}_d
/o{612 0 55 -13 557 560 _sc
306 484 _m
258 484 220 465 192 427 _c
164 389 150 338 150 273 _c
150 207 163 156 191 118 _c
219 80 257 62 306 62 _c
354 62 392 80 420 118 _c
448 156 462 207 462 273 _c
462 337 448 389 420 427 _c
392 465 354 484 306 484 _c
306 560 _m
384 560 445 534 490 484 _c
534 433 557 363 557 273 _c
557 183 534 113 490 63 _c
445 12 384 -13 306 -13 _c
227 -13 165 12 121 63 _c
77 113 55 183 55 273 _c
55 363 77 433 121 484 _c
165 534 227 560 306 560 _c
_cl}_d
/r{411 0 91 0 411 560 _sc
411 463 _m
401 469 390 473 378 476 _c
366 478 353 480 339 480 _c
288 480 249 463 222 430 _c
194 397 181 350 181 288 _c
181 0 _l
91 0 _l
91 547 _l
181 547 _l
181 462 _l
199 495 224 520 254 536 _c
284 552 321 560 365 560 _c
371 560 378 559 386 559 _c
393 558 401 557 411 555 _c
411 463 _l
_cl}_d
/s{{521 0 54 -13 472 560 _sc
443 531 _m
443 446 _l
417 458 391 468 364 475 _c
336 481 308 485 279 485 _c
234 485 200 478 178 464 _c
156 450 145 430 145 403 _c
145 382 153 366 169 354 _c
185 342 217 330 265 320 _c
296 313 _l
360 299 405 279 432 255 _c
458 230 472 195 472 151 _c
472 100 452 60 412 31 _c
372 1 316 -13 246 -13 _c
216 -13 186 -10 154 -5 _c
}_e{122 0 89 8 54 20 _c
54 113 _l
87 95 120 82 152 74 _c
184 65 216 61 248 61 _c
290 61 323 68 346 82 _c
368 96 380 117 380 144 _c
380 168 371 187 355 200 _c
339 213 303 226 247 238 _c
216 245 _l
160 257 119 275 95 299 _c
70 323 58 356 58 399 _c
58 450 76 490 112 518 _c
148 546 200 560 268 560 _c
301 560 332 557 362 552 _c
391 547 418 540 443 531 _c
}_e{_cl}_e}_d
/t{392 0 27 0 368 702 _sc
183 702 _m
183 547 _l
368 547 _l
368 477 _l
183 477 _l
183 180 _l
183 135 189 106 201 94 _c
213 81 238 75 276 75 _c
368 75 _l
368 0 _l
276 0 _l
206 0 158 13 132 39 _c
106 65 93 112 93 180 _c
93 477 _l
27 477 _l
27 547 _l
93 547 _l
93 702 _l
183 702 _l
_cl}_d
/u{634 0 85 -13 543 547 _sc
85 216 _m
85 547 _l
175 547 _l
175 219 _l
175 167 185 129 205 103 _c
225 77 255 64 296 64 _c
344 64 383 79 411 110 _c
439 141 453 183 453 237 _c
453 547 _l
543 547 _l
543 0 _l
453 0 _l
453 84 _l
431 50 405 26 377 10 _c
348 -5 315 -13 277 -13 _c
214 -13 166 6 134 45 _c
101 83 85 140 85 216 _c
_cl}_d
end readonly def

/BuildGlyph
 {exch begin
 CharStrings exch
 2 copy known not{pop /.notdef}if
 true 3 1 roll get exec
 end}_d

/BuildChar {
 1 index /Encoding get exch get
 1 index /BuildGlyph get exec
}_d

FontName currentdict end definefont pop
end
%%EndProlog
mpldict begin
-558 -63.9 translate
1728 919.8 0 0 clipbox
100000 setmiterlimit
gsave
0 0 m
1728 0 l
1728 919.8 l
0 919.8 l
cl
1.000 setgray
fill
grestore
gsave
216 91.98 m
1555.2 91.98 l
1555.2 827.82 l
216 827.82 l
cl
1.000 setgray
fill
grestore
0.500 setlinewidth
1 setlinejoin
0 setlinecap
[] 0 setdash
0.000 setgray
gsave
1339 735.8 216 91.98 clipbox
/o {
gsave
newpath
translate
0.5 setlinewidth
1 setlinejoin
0 setlinecap
0 -3 m
0.795609 -3 1.55874 -2.683901 2.12132 -2.12132 c
2.683901 -1.55874 3 -0.795609 3 0 c
3 0.795609 2.683901 1.55874 2.12132 2.12132 c
1.55874 2.683901 0.795609 3 0 3 c
-0.795609 3 -1.55874 2.683901 -2.12132 2.12132 c
-2.683901 1.55874 -3 0.795609 -3 0 c
-3 -0.795609 -2.683901 -1.55874 -2.12132 -2.12132 c
-1.55874 -2.683901 -0.795609 -3 0 -3 c
cl

gsave
0.000 0.000 1.000 setrgbcolor
fill
grestore
stroke
grestore
} bind def
707.737 91.98 o
482.794 93.0312 o
388.631 94.0824 o
216 95.1336 o
608.344 96.1848 o
592.65 97.236 o
477.562 98.2872 o
969.3 99.3384 o
325.856 100.39 o
681.581 101.441 o
367.706 102.492 o
545.569 103.543 o
231.694 104.594 o
216 105.646 o
644.963 106.697 o
456.638 107.748 o
362.475 108.799 o
216 109.85 o
216 110.902 o
1555.2 111.953 o
216 113.004 o
352.013 114.055 o
770.513 115.106 o
540.338 116.158 o
216 117.209 o
885.6 118.26 o
216 119.311 o
472.331 120.362 o
399.094 121.414 o
456.638 122.465 o
325.856 123.516 o
603.112 124.567 o
284.006 125.618 o
216 126.67 o
1063.46 127.721 o
754.819 128.772 o
362.475 129.823 o
420.019 130.874 o
362.475 131.926 o
216 132.977 o
425.25 134.028 o
508.95 135.079 o
775.744 136.13 o
216 137.182 o
592.65 138.233 o
472.331 139.284 o
639.731 140.335 o
498.488 141.386 o
216 142.438 o
796.669 143.489 o
1094.85 144.54 o
383.4 145.591 o
733.894 146.642 o
216 147.694 o
221.231 148.745 o
969.3 149.796 o
216 150.847 o
231.694 151.898 o
545.569 152.95 o
216 154.001 o
728.663 155.052 o
263.081 156.103 o
278.775 157.154 o
916.988 158.206 o
216 159.257 o
613.575 160.308 o
765.281 161.359 o
273.544 162.41 o
273.544 163.462 o
550.8 164.513 o
545.569 165.564 o
754.819 166.615 o
859.444 167.666 o
216 168.718 o
556.031 169.769 o
529.875 170.82 o
603.112 171.871 o
488.025 172.922 o
216 173.974 o
624.038 175.025 o
671.119 176.076 o
357.244 177.127 o
284.006 178.178 o
257.85 179.23 o
236.925 180.281 o
550.8 181.332 o
278.775 182.383 o
331.087 183.434 o
393.863 184.486 o
503.719 185.537 o
639.731 186.588 o
216 187.639 o
216 188.69 o
221.231 189.742 o
216 190.793 o
482.794 191.844 o
540.338 192.895 o
216 193.946 o
634.5 194.998 o
336.319 196.049 o
236.925 197.1 o
749.587 198.151 o
409.556 199.202 o
770.513 200.254 o
1345.95 201.305 o
477.562 202.356 o
498.488 203.407 o
655.425 204.458 o
1445.34 205.51 o
216 206.561 o
498.488 207.612 o
216 208.663 o
231.694 209.714 o
414.788 210.766 o
273.544 211.817 o
430.481 212.868 o
561.263 213.919 o
435.712 214.97 o
278.775 216.022 o
435.712 217.073 o
216 218.124 o
451.406 219.175 o
1492.42 220.226 o
216 221.278 o
796.669 222.329 o
216 223.38 o
446.175 224.431 o
812.363 225.482 o
812.363 226.534 o
597.881 227.585 o
216 228.636 o
482.794 229.687 o
268.312 230.738 o
566.494 231.79 o
216 232.841 o
482.794 233.892 o
216 234.943 o
221.231 235.994 o
639.731 237.046 o
440.944 238.097 o
252.619 239.148 o
216 240.199 o
508.95 241.25 o
399.094 242.302 o
582.188 243.353 o
393.863 244.404 o
556.031 245.455 o
409.556 246.506 o
216 247.558 o
550.8 248.609 o
372.938 249.66 o
477.562 250.711 o
472.331 251.762 o
231.694 252.814 o
236.925 253.865 o
216 254.916 o
990.225 255.967 o
216 257.018 o
310.163 258.07 o
216 259.121 o
692.044 260.172 o
749.587 261.223 o
430.481 262.274 o
221.231 263.326 o
514.181 264.377 o
216 265.428 o
236.925 266.479 o
1523.81 267.53 o
817.594 268.582 o
561.263 269.633 o
399.094 270.684 o
592.65 271.735 o
550.8 272.786 o
320.625 273.838 o
378.169 274.889 o
310.163 275.94 o
524.644 276.991 o
216 278.042 o
289.238 279.094 o
744.356 280.145 o
420.019 281.196 o
304.931 282.247 o
362.475 283.298 o
885.6 284.35 o
508.95 285.401 o
660.656 286.452 o
331.087 287.503 o
263.081 288.554 o
216 289.606 o
216 290.657 o
420.019 291.708 o
325.856 292.759 o
420.019 293.81 o
226.463 294.862 o
331.087 295.913 o
216 296.964 o
869.906 298.015 o
1413.96 299.066 o
1555.2 300.118 o
268.312 301.169 o
676.35 302.22 o
801.9 303.271 o
331.087 304.322 o
331.087 305.374 o
576.956 306.425 o
435.712 307.476 o
430.481 308.527 o
869.906 309.578 o
451.406 310.63 o
320.625 311.681 o
336.319 312.732 o
216 313.783 o
221.231 314.834 o
456.638 315.886 o
216 316.937 o
524.644 317.988 o
289.238 319.039 o
226.463 320.09 o
535.106 321.142 o
446.175 322.193 o
843.75 323.244 o
420.019 324.295 o
1555.2 325.346 o
289.238 326.398 o
304.931 327.449 o
676.35 328.5 o
566.494 329.551 o
697.275 330.602 o
482.794 331.654 o
597.881 332.705 o
597.881 333.756 o
388.631 334.807 o
582.188 335.858 o
216 336.91 o
216 337.961 o
216 339.012 o
216 340.063 o
498.488 341.114 o
320.625 342.166 o
1183.78 343.217 o
864.675 344.268 o
749.587 345.319 o
461.869 346.37 o
529.875 347.422 o
216 348.473 o
284.006 349.524 o
624.038 350.575 o
216 351.626 o
414.788 352.678 o
216 353.729 o
503.719 354.78 o
1555.2 355.831 o
216 356.882 o
451.406 357.934 o
216 358.985 o
482.794 360.036 o
216 361.087 o
864.675 362.138 o
289.238 363.19 o
498.488 364.241 o
822.825 365.292 o
477.562 366.343 o
639.731 367.394 o
278.775 368.446 o
430.481 369.497 o
278.775 370.548 o
624.038 371.599 o
629.269 372.65 o
634.5 373.702 o
566.494 374.753 o
216 375.804 o
336.319 376.855 o
231.694 377.906 o
723.431 378.958 o
304.931 380.009 o
278.775 381.06 o
320.625 382.111 o
749.587 383.162 o
216 384.214 o
587.419 385.265 o
514.181 386.316 o
712.969 387.367 o
686.812 388.418 o
786.206 389.47 o
885.6 390.521 o
576.956 391.572 o
320.625 392.623 o
393.863 393.674 o
216 394.726 o
451.406 395.777 o
320.625 396.828 o
916.988 397.879 o
723.431 398.93 o
482.794 399.982 o
336.319 401.033 o
388.631 402.084 o
378.169 403.135 o
315.394 404.186 o
216 405.238 o
482.794 406.289 o
414.788 407.34 o
221.231 408.391 o
352.013 409.442 o
1461.04 410.494 o
545.569 411.545 o
362.475 412.596 o
216 413.647 o
550.8 414.698 o
399.094 415.75 o
519.413 416.801 o
299.7 417.852 o
216 418.903 o
331.087 419.954 o
1220.4 421.006 o
676.35 422.057 o
263.081 423.108 o
216 424.159 o
1555.2 425.21 o
420.019 426.262 o
216 427.313 o
216 428.364 o
299.7 429.415 o
807.131 430.466 o
519.413 431.518 o
801.9 432.569 o
608.344 433.62 o
712.969 434.671 o
425.25 435.722 o
634.5 436.774 o
393.863 437.825 o
765.281 438.876 o
911.756 439.927 o
707.737 440.978 o
1089.62 442.03 o
456.638 443.081 o
576.956 444.132 o
712.969 445.183 o
216 446.234 o
712.969 447.286 o
519.413 448.337 o
216 449.388 o
216 450.439 o
352.013 451.49 o
629.269 452.542 o
304.931 453.593 o
325.856 454.644 o
435.712 455.695 o
216 456.746 o
545.569 457.798 o
461.869 458.849 o
556.031 459.9 o
535.106 460.951 o
535.106 462.002 o
467.1 463.054 o
231.694 464.105 o
639.731 465.156 o
618.806 466.207 o
216 467.258 o
592.65 468.31 o
341.55 469.361 o
786.206 470.412 o
1555.2 471.463 o
362.475 472.514 o
660.656 473.566 o
514.181 474.617 o
236.925 475.668 o
216 476.719 o
372.938 477.77 o
216 478.822 o
357.244 479.873 o
624.038 480.924 o
503.719 481.975 o
639.731 483.026 o
216 484.078 o
216 485.129 o
461.869 486.18 o
435.712 487.231 o
718.2 488.282 o
231.694 489.334 o
331.087 490.385 o
383.4 491.436 o
587.419 492.487 o
524.644 493.538 o
299.7 494.59 o
712.969 495.641 o
529.875 496.692 o
420.019 497.743 o
216 498.794 o
216 499.846 o
1011.15 500.897 o
456.638 501.948 o
456.638 502.999 o
216 504.05 o
216 505.102 o
440.944 506.153 o
346.781 507.204 o
519.413 508.255 o
864.675 509.306 o
650.194 510.358 o
289.238 511.409 o
561.263 512.46 o
216 513.511 o
461.869 514.562 o
979.763 515.614 o
597.881 516.665 o
216 517.716 o
409.556 518.767 o
216 519.818 o
1518.58 520.87 o
357.244 521.921 o
216 522.972 o
393.863 524.023 o
383.4 525.074 o
216 526.126 o
922.219 527.177 o
341.55 528.228 o
467.1 529.279 o
430.481 530.33 o
838.519 531.382 o
482.794 532.433 o
216 533.484 o
1215.17 534.535 o
482.794 535.586 o
901.294 536.638 o
216 537.689 o
932.681 538.74 o
592.65 539.791 o
592.65 540.842 o
749.587 541.894 o
216 542.945 o
399.094 543.996 o
346.781 545.047 o
890.831 546.098 o
216 547.15 o
744.356 548.201 o
744.356 549.252 o
216 550.303 o
216 551.354 o
676.35 552.406 o
216 553.457 o
702.506 554.508 o
597.881 555.559 o
252.619 556.61 o
216 557.662 o
216 558.713 o
216 559.764 o
508.95 560.815 o
671.119 561.866 o
634.5 562.918 o
446.175 563.969 o
979.763 565.02 o
597.881 566.071 o
216 567.122 o
692.044 568.174 o
1508.12 569.225 o
304.931 570.276 o
838.519 571.327 o
216 572.378 o
216 573.43 o
550.8 574.481 o
216 575.532 o
357.244 576.583 o
739.125 577.634 o
901.294 578.686 o
216 579.737 o
216 580.788 o
216 581.839 o
216 582.89 o
425.25 583.942 o
388.631 584.993 o
467.1 586.044 o
597.881 587.095 o
216 588.146 o
603.112 589.198 o
545.569 590.249 o
514.181 591.3 o
388.631 592.351 o
216 593.402 o
608.344 594.454 o
352.013 595.505 o
1555.2 596.556 o
268.312 597.607 o
268.312 598.658 o
216 599.71 o
216 600.761 o
1183.78 601.812 o
472.331 602.863 o
325.856 603.914 o
216 604.966 o
216 606.017 o
216 607.068 o
1555.2 608.119 o
754.819 609.17 o
393.863 610.222 o
367.706 611.273 o
854.212 612.324 o
692.044 613.375 o
1209.94 614.426 o
430.481 615.478 o
216 616.529 o
1544.74 617.58 o
639.731 618.631 o
357.244 619.682 o
216 620.734 o
488.025 621.785 o
760.05 622.836 o
341.55 623.887 o
425.25 624.938 o
393.863 625.99 o
331.087 627.041 o
404.325 628.092 o
582.188 629.143 o
1555.2 630.194 o
216 631.246 o
655.425 632.297 o
461.869 633.348 o
216 634.399 o
399.094 635.45 o
1042.54 636.502 o
216 637.553 o
216 638.604 o
833.288 639.655 o
242.156 640.706 o
216 641.758 o
216 642.809 o
216 643.86 o
692.044 644.911 o
414.788 645.962 o
634.5 647.014 o
1555.2 648.065 o
284.006 649.116 o
325.856 650.167 o
550.8 651.218 o
216 652.27 o
216 653.321 o
1105.31 654.372 o
535.106 655.423 o
760.05 656.474 o
216 657.526 o
440.944 658.577 o
775.744 659.628 o
1016.38 660.679 o
467.1 661.73 o
796.669 662.782 o
545.569 663.833 o
221.231 664.884 o
216 665.935 o
529.875 666.986 o
236.925 668.038 o
859.444 669.089 o
456.638 670.14 o
576.956 671.191 o
216 672.242 o
624.038 673.294 o
655.425 674.345 o
639.731 675.396 o
880.369 676.447 o
435.712 677.498 o
587.419 678.55 o
644.963 679.601 o
216 680.652 o
216 681.703 o
869.906 682.754 o
618.806 683.806 o
848.981 684.857 o
571.725 685.908 o
216 686.959 o
216 688.01 o
420.019 689.062 o
216 690.113 o
310.163 691.164 o
216 692.215 o
608.344 693.266 o
263.081 694.318 o
216 695.369 o
216 696.42 o
216 697.471 o
733.894 698.522 o
624.038 699.574 o
352.013 700.625 o
775.744 701.676 o
519.413 702.727 o
488.025 703.778 o
477.562 704.83 o
216 705.881 o
540.338 706.932 o
597.881 707.983 o
325.856 709.034 o
916.988 710.086 o
545.569 711.137 o
346.781 712.188 o
216 713.239 o
216 714.29 o
707.737 715.342 o
216 716.393 o
263.081 717.444 o
592.65 718.495 o
707.737 719.546 o
603.112 720.598 o
681.581 721.649 o
503.719 722.7 o
1382.57 723.751 o
587.419 724.802 o
639.731 725.854 o
216 726.905 o
304.931 727.956 o
639.731 729.007 o
597.881 730.058 o
791.438 731.11 o
461.869 732.161 o
440.944 733.212 o
1042.54 734.263 o
372.938 735.314 o
1105.31 736.366 o
216 737.417 o
545.569 738.468 o
514.181 739.519 o
613.575 740.57 o
629.269 741.622 o
613.575 742.673 o
284.006 743.724 o
1455.81 744.775 o
671.119 745.826 o
325.856 746.878 o
482.794 747.929 o
519.413 748.98 o
216 750.031 o
352.013 751.082 o
472.331 752.134 o
456.638 753.185 o
216 754.236 o
440.944 755.287 o
430.481 756.338 o
556.031 757.39 o
1283.17 758.441 o
597.881 759.492 o
216 760.543 o
493.256 761.594 o
284.006 762.646 o
592.65 763.697 o
508.95 764.748 o
629.269 765.799 o
702.506 766.85 o
231.694 767.902 o
472.331 768.953 o
273.544 770.004 o
346.781 771.055 o
765.281 772.106 o
1147.16 773.158 o
216 774.209 o
336.319 775.26 o
493.256 776.311 o
493.256 777.362 o
231.694 778.414 o
278.775 779.465 o
247.387 780.516 o
498.488 781.567 o
435.712 782.618 o
435.712 783.67 o
289.238 784.721 o
216 785.772 o
216 786.823 o
216 787.874 o
519.413 788.926 o
216 789.977 o
273.544 791.028 o
488.025 792.079 o
399.094 793.13 o
315.394 794.182 o
216 795.233 o
304.931 796.284 o
216 797.335 o
498.488 798.386 o
493.256 799.438 o
216 800.489 o
226.463 801.54 o
1555.2 802.591 o
984.994 803.642 o
770.513 804.694 o
749.587 805.745 o
550.8 806.796 o
744.356 807.847 o
216 808.898 o
1534.28 809.95 o
341.55 811.001 o
216 812.052 o
216 813.103 o
420.019 814.154 o
242.156 815.206 o
367.706 816.257 o
707.737 817.308 o
477.562 818.359 o
352.013 819.41 o
1199.47 820.462 o
268.312 821.513 o
660.656 822.564 o
388.631 823.615 o
624.038 824.666 o
430.481 825.718 o
697.275 826.769 o
grestore
1.000 setlinewidth
0 setlinejoin
2 setlinecap
gsave
216 827.82 m
1555.2 827.82 l
stroke
grestore
gsave
1555.2 91.98 m
1555.2 827.82 l
stroke
grestore
gsave
216 91.98 m
1555.2 91.98 l
stroke
grestore
gsave
216 91.98 m
216 827.82 l
stroke
grestore
0.500 setlinewidth
1 setlinejoin
0 setlinecap
gsave
/o {
gsave
newpath
translate
0.5 setlinewidth
1 setlinejoin
0 setlinecap
0 0 m
0 4 l

gsave
0.000 setgray
fill
grestore
stroke
grestore
} bind def
216 91.98 o
grestore
gsave
/o {
gsave
newpath
translate
0.5 setlinewidth
1 setlinejoin
0 setlinecap
0 0 m
0 -4 l

gsave
0.000 setgray
fill
grestore
stroke
grestore
} bind def
216 827.82 o
grestore
/BitstreamVeraSans-Roman findfont
38.000 scalefont
setfont
gsave
185.789062 59.105000 translate
0.000000 rotate
0.000000 0.000000 m /zero glyphshow
24.176758 0.000000 m /period glyphshow
36.255859 0.000000 m /zero glyphshow
grestore
gsave
/o {
gsave
newpath
translate
0.5 setlinewidth
1 setlinejoin
0 setlinecap
0 0 m
0 4 l

gsave
0.000 setgray
fill
grestore
stroke
grestore
} bind def
483.84 91.98 o
grestore
gsave
/o {
gsave
newpath
translate
0.5 setlinewidth
1 setlinejoin
0 setlinecap
0 0 m
0 -4 l

gsave
0.000 setgray
fill
grestore
stroke
grestore
} bind def
483.84 827.82 o
grestore
gsave
453.629063 59.105000 translate
0.000000 rotate
0.000000 0.000000 m /zero glyphshow
24.176758 0.000000 m /period glyphshow
36.255859 0.000000 m /two glyphshow
grestore
gsave
/o {
gsave
newpath
translate
0.5 setlinewidth
1 setlinejoin
0 setlinecap
0 0 m
0 4 l

gsave
0.000 setgray
fill
grestore
stroke
grestore
} bind def
751.68 91.98 o
grestore
gsave
/o {
gsave
newpath
translate
0.5 setlinewidth
1 setlinejoin
0 setlinecap
0 0 m
0 -4 l

gsave
0.000 setgray
fill
grestore
stroke
grestore
} bind def
751.68 827.82 o
grestore
gsave
721.469063 59.105000 translate
0.000000 rotate
0.000000 0.000000 m /zero glyphshow
24.176758 0.000000 m /period glyphshow
36.255859 0.000000 m /four glyphshow
grestore
gsave
/o {
gsave
newpath
translate
0.5 setlinewidth
1 setlinejoin
0 setlinecap
0 0 m
0 4 l

gsave
0.000 setgray
fill
grestore
stroke
grestore
} bind def
1019.52 91.98 o
grestore
gsave
/o {
gsave
newpath
translate
0.5 setlinewidth
1 setlinejoin
0 setlinecap
0 0 m
0 -4 l

gsave
0.000 setgray
fill
grestore
stroke
grestore
} bind def
1019.52 827.82 o
grestore
gsave
989.309063 59.105000 translate
0.000000 rotate
0.000000 0.000000 m /zero glyphshow
24.176758 0.000000 m /period glyphshow
36.255859 0.000000 m /six glyphshow
grestore
gsave
/o {
gsave
newpath
translate
0.5 setlinewidth
1 setlinejoin
0 setlinecap
0 0 m
0 4 l

gsave
0.000 setgray
fill
grestore
stroke
grestore
} bind def
1287.36 91.98 o
grestore
gsave
/o {
gsave
newpath
translate
0.5 setlinewidth
1 setlinejoin
0 setlinecap
0 0 m
0 -4 l

gsave
0.000 setgray
fill
grestore
stroke
grestore
} bind def
1287.36 827.82 o
grestore
gsave
1257.149063 59.105000 translate
0.000000 rotate
0.000000 0.000000 m /zero glyphshow
24.176758 0.000000 m /period glyphshow
36.255859 0.000000 m /eight glyphshow
grestore
gsave
/o {
gsave
newpath
translate
0.5 setlinewidth
1 setlinejoin
0 setlinecap
0 0 m
0 4 l

gsave
0.000 setgray
fill
grestore
stroke
grestore
} bind def
1555.2 91.98 o
grestore
gsave
/o {
gsave
newpath
translate
0.5 setlinewidth
1 setlinejoin
0 setlinecap
0 0 m
0 -4 l

gsave
0.000 setgray
fill
grestore
stroke
grestore
} bind def
1555.2 827.82 o
grestore
gsave
1524.989063 59.105000 translate
0.000000 rotate
0.000000 0.000000 m /one glyphshow
24.176758 0.000000 m /period glyphshow
36.255859 0.000000 m /zero glyphshow
grestore
gsave
808.404688 17.323750 translate
0.000000 rotate
0.000000 0.000000 m /W glyphshow
37.541992 0.000000 m /e glyphshow
60.920898 0.000000 m /i glyphshow
71.478516 0.000000 m /g glyphshow
95.599609 0.000000 m /h glyphshow
119.683594 0.000000 m /t glyphshow
134.583008 0.000000 m /s glyphshow
grestore
gsave
/o {
gsave
newpath
translate
0.5 setlinewidth
1 setlinejoin
0 setlinecap
0 0 m
4 0 l

gsave
0.000 setgray
fill
grestore
stroke
grestore
} bind def
216 91.98 o
grestore
gsave
/o {
gsave
newpath
translate
0.5 setlinewidth
1 setlinejoin
0 setlinecap
0 0 m
-4 0 l

gsave
0.000 setgray
fill
grestore
stroke
grestore
} bind def
1555.2 91.98 o
grestore
gsave
187.828125 81.495625 translate
0.000000 rotate
0.000000 0.000000 m /zero glyphshow
grestore
gsave
/o {
gsave
newpath
translate
0.5 setlinewidth
1 setlinejoin
0 setlinecap
0 0 m
4 0 l

gsave
0.000 setgray
fill
grestore
stroke
grestore
} bind def
216 197.1 o
grestore
gsave
/o {
gsave
newpath
translate
0.5 setlinewidth
1 setlinejoin
0 setlinecap
0 0 m
-4 0 l

gsave
0.000 setgray
fill
grestore
stroke
grestore
} bind def
1555.2 197.1 o
grestore
gsave
139.484375 186.615625 translate
0.000000 rotate
0.000000 0.000000 m /one glyphshow
24.176758 0.000000 m /zero glyphshow
48.353516 0.000000 m /zero glyphshow
grestore
gsave
/o {
gsave
newpath
translate
0.5 setlinewidth
1 setlinejoin
0 setlinecap
0 0 m
4 0 l

gsave
0.000 setgray
fill
grestore
stroke
grestore
} bind def
216 302.22 o
grestore
gsave
/o {
gsave
newpath
translate
0.5 setlinewidth
1 setlinejoin
0 setlinecap
0 0 m
-4 0 l

gsave
0.000 setgray
fill
grestore
stroke
grestore
} bind def
1555.2 302.22 o
grestore
gsave
139.484375 291.735625 translate
0.000000 rotate
0.000000 0.000000 m /two glyphshow
24.176758 0.000000 m /zero glyphshow
48.353516 0.000000 m /zero glyphshow
grestore
gsave
/o {
gsave
newpath
translate
0.5 setlinewidth
1 setlinejoin
0 setlinecap
0 0 m
4 0 l

gsave
0.000 setgray
fill
grestore
stroke
grestore
} bind def
216 407.34 o
grestore
gsave
/o {
gsave
newpath
translate
0.5 setlinewidth
1 setlinejoin
0 setlinecap
0 0 m
-4 0 l

gsave
0.000 setgray
fill
grestore
stroke
grestore
} bind def
1555.2 407.34 o
grestore
gsave
139.484375 396.855625 translate
0.000000 rotate
0.000000 0.000000 m /three glyphshow
24.176758 0.000000 m /zero glyphshow
48.353516 0.000000 m /zero glyphshow
grestore
gsave
/o {
gsave
newpath
translate
0.5 setlinewidth
1 setlinejoin
0 setlinecap
0 0 m
4 0 l

gsave
0.000 setgray
fill
grestore
stroke
grestore
} bind def
216 512.46 o
grestore
gsave
/o {
gsave
newpath
translate
0.5 setlinewidth
1 setlinejoin
0 setlinecap
0 0 m
-4 0 l

gsave
0.000 setgray
fill
grestore
stroke
grestore
} bind def
1555.2 512.46 o
grestore
gsave
139.484375 501.975625 translate
0.000000 rotate
0.000000 0.000000 m /four glyphshow
24.176758 0.000000 m /zero glyphshow
48.353516 0.000000 m /zero glyphshow
grestore
gsave
/o {
gsave
newpath
translate
0.5 setlinewidth
1 setlinejoin
0 setlinecap
0 0 m
4 0 l

gsave
0.000 setgray
fill
grestore
stroke
grestore
} bind def
216 617.58 o
grestore
gsave
/o {
gsave
newpath
translate
0.5 setlinewidth
1 setlinejoin
0 setlinecap
0 0 m
-4 0 l

gsave
0.000 setgray
fill
grestore
stroke
grestore
} bind def
1555.2 617.58 o
grestore
gsave
139.484375 607.095625 translate
0.000000 rotate
0.000000 0.000000 m /five glyphshow
24.176758 0.000000 m /zero glyphshow
48.353516 0.000000 m /zero glyphshow
grestore
gsave
/o {
gsave
newpath
translate
0.5 setlinewidth
1 setlinejoin
0 setlinecap
0 0 m
4 0 l

gsave
0.000 setgray
fill
grestore
stroke
grestore
} bind def
216 722.7 o
grestore
gsave
/o {
gsave
newpath
translate
0.5 setlinewidth
1 setlinejoin
0 setlinecap
0 0 m
-4 0 l

gsave
0.000 setgray
fill
grestore
stroke
grestore
} bind def
1555.2 722.7 o
grestore
gsave
139.484375 712.215625 translate
0.000000 rotate
0.000000 0.000000 m /six glyphshow
24.176758 0.000000 m /zero glyphshow
48.353516 0.000000 m /zero glyphshow
grestore
gsave
/o {
gsave
newpath
translate
0.5 setlinewidth
1 setlinejoin
0 setlinecap
0 0 m
4 0 l

gsave
0.000 setgray
fill
grestore
stroke
grestore
} bind def
216 827.82 o
grestore
gsave
/o {
gsave
newpath
translate
0.5 setlinewidth
1 setlinejoin
0 setlinecap
0 0 m
-4 0 l

gsave
0.000 setgray
fill
grestore
stroke
grestore
} bind def
1555.2 827.82 o
grestore
gsave
139.484375 817.335625 translate
0.000000 rotate
0.000000 0.000000 m /seven glyphshow
24.176758 0.000000 m /zero glyphshow
48.353516 0.000000 m /zero glyphshow
grestore
gsave
126.578125 326.298437 translate
90.000000 rotate
0.000000 0.000000 m /N glyphshow
28.425781 0.000000 m /e glyphshow
51.804688 0.000000 m /u glyphshow
75.888672 0.000000 m /r glyphshow
91.511719 0.000000 m /o glyphshow
114.760742 0.000000 m /n glyphshow
138.844727 0.000000 m /space glyphshow
150.923828 0.000000 m /I glyphshow
162.130859 0.000000 m /D glyphshow
191.391602 0.000000 m /space glyphshow
203.470703 0.000000 m /N glyphshow
231.896484 0.000000 m /o glyphshow
255.145508 0.000000 m /period glyphshow
grestore
1.000 setlinewidth
1 setlinecap
1.000 0.000 0.000 setrgbcolor
gsave
1549.148784 115.838936 m
1550.605449 114.903455 1551.748532 114.169359 1552.578034 113.636646 c
stroke
grestore
gsave
1544.352155 127.47626 m
1552.578034 113.636646 l
1536.570816 115.359711 l
stroke
grestore
0.000 setgray
/BitstreamVeraSans-Roman findfont
36.000 scalefont
setfont
gsave
1499.152542 123.298833 translate
0.000000 rotate
0.000000 0.000000 m /one glyphshow
22.904297 0.000000 m /nine glyphshow
grestore
1.000 0.000 0.000 setrgbcolor
gsave
1112.131829 150.925514 m
1238.239535 173.906141 1363.9806 196.819956 1489.355025 219.666958 c
stroke
grestore
gsave
1473.897526 224.168707 m
1489.355025 219.666958 l
1476.479126 210.002009 l
stroke
grestore
0.000 setgray
gsave
1038.944682 133.912423 translate
0.000000 rotate
0.000000 0.000000 m /one glyphshow
22.904297 0.000000 m /two glyphshow
45.808594 0.000000 m /two glyphshow
grestore
1.000 0.000 0.000 setrgbcolor
gsave
1327.794132 227.889884 m
1392.480552 240.971327 1456.801689 253.978899 1520.757543 266.9126 c
stroke
grestore
gsave
1505.216107 271.11543 m
1520.757543 266.9126 l
1508.070418 257.001149 l
stroke
grestore
0.000 setgray
gsave
1254.611805 210.101274 translate
0.000000 rotate
0.000000 0.000000 m /one glyphshow
22.904297 0.000000 m /six glyphshow
45.808594 0.000000 m /seven glyphshow
grestore
1.000 0.000 0.000 setrgbcolor
gsave
1092.679186 303.629552 m
1246.185856 302.463965 1399.319859 301.301209 1552.081195 300.141281 c
stroke
grestore
gsave
1537.736278 307.450411 m
1552.081195 300.141281 l
1537.626941 293.050826 l
stroke
grestore
0.000 setgray
gsave
1019.461443 293.987106 translate
0.000000 rotate
0.000000 0.000000 m /one glyphshow
22.904297 0.000000 m /nine glyphshow
45.808594 0.000000 m /eight glyphshow
grestore
1.000 0.000 0.000 setrgbcolor
gsave
1419.796443 349.359888 m
1464.273944 341.471913 1508.384493 333.649015 1552.12809 325.891196 c
stroke
grestore
gsave
1539.206623 335.495137 m
1552.12809 325.891196 l
1536.692057 321.316387 l
stroke
grestore
0.000 setgray
gsave
1346.610201 346.308238 translate
0.000000 rotate
0.000000 0.000000 m /two glyphshow
22.904297 0.000000 m /two glyphshow
45.808594 0.000000 m /two glyphshow
grestore
1.000 0.000 0.000 setrgbcolor
gsave
1524.401453 319.160701 m
1534.238416 330.873147 1543.835696 342.300214 1553.193294 353.441902 c
stroke
grestore
gsave
1538.418731 347.045632 m
1553.193294 353.441902 l
1549.445573 337.784489 l
stroke
grestore
0.000 setgray
gsave
1472.026125 287.772384 translate
0.000000 rotate
0.000000 0.000000 m /two glyphshow
22.904297 0.000000 m /five glyphshow
45.808594 0.000000 m /one glyphshow
grestore
1.000 0.000 0.000 setrgbcolor
gsave
996.432498 472.010623 m
1182.024716 456.466131 1367.245556 440.952744 1552.095019 425.470461 c
stroke
grestore
gsave
1538.346204 433.84722 m
1552.095019 425.470461 l
1537.144323 419.497464 l
stroke
grestore
0.000 setgray
gsave
923.220340 465.327284 translate
0.000000 rotate
0.000000 0.000000 m /three glyphshow
22.904297 0.000000 m /one glyphshow
45.808594 0.000000 m /seven glyphshow
grestore
1.000 0.000 0.000 setrgbcolor
gsave
1231.462583 418.234335 m
1338.717233 435.869131 1445.604143 453.443463 1552.123312 470.957331 c
stroke
grestore
gsave
1536.745958 475.725662 m
1552.123312 470.957331 l
1539.082235 461.516446 l
stroke
grestore
0.000 setgray
gsave
1158.267883 401.911536 translate
0.000000 rotate
0.000000 0.000000 m /three glyphshow
22.904297 0.000000 m /six glyphshow
45.808594 0.000000 m /one glyphshow
grestore
1.000 0.000 0.000 setrgbcolor
gsave
1191.073919 537.379658 m
1299.577547 531.909853 1407.708969 526.458812 1515.468187 521.026533 c
stroke
grestore
gsave
1501.44895 528.942404 m
1515.468187 521.026533 l
1500.723948 514.560666 l
stroke
grestore
0.000 setgray
gsave
1117.856366 529.401048 translate
0.000000 rotate
0.000000 0.000000 m /four glyphshow
22.904297 0.000000 m /zero glyphshow
45.808594 0.000000 m /eight glyphshow
grestore
1.000 0.000 0.000 setrgbcolor
gsave
744.850991 541.697914 m
998.606813 550.849496 1251.990199 559.987647 1505.001149 569.112365 c
stroke
grestore
gsave
1490.351009 575.788696 m
1505.001149 569.112365 l
1490.87 561.398051 l
stroke
grestore
0.000 setgray
gsave
671.629515 530.358871 translate
0.000000 rotate
0.000000 0.000000 m /four glyphshow
22.904297 0.000000 m /five glyphshow
45.808594 0.000000 m /four glyphshow
grestore
1.000 0.000 0.000 setrgbcolor
gsave
1530.290902 568.716739 m
1538.148984 577.499201 1545.758566 586.00393 1553.119646 594.230925 c
stroke
grestore
gsave
1538.152028 588.300458 m
1553.119646 594.230925 l
1548.883449 578.698551 l
stroke
grestore
0.000 setgray
gsave
1476.769800 537.363436 translate
0.000000 rotate
0.000000 0.000000 m /four glyphshow
22.904297 0.000000 m /eight glyphshow
45.808594 0.000000 m /zero glyphshow
grestore
1.000 0.000 0.000 setrgbcolor
gsave
937.397146 627.795755 m
1142.66369 621.258171 1347.557745 614.732449 1552.079311 608.218592 c
stroke
grestore
gsave
1537.915808 615.873339 m
1552.079311 608.218592 l
1537.457411 601.480637 l
stroke
grestore
0.000 setgray
gsave
864.176835 619.095947 translate
0.000000 rotate
0.000000 0.000000 m /four glyphshow
22.904297 0.000000 m /nine glyphshow
45.808594 0.000000 m /one glyphshow
grestore
1.000 0.000 0.000 setrgbcolor
gsave
1431.051571 637.633963 m
1468.29116 631.064976 1505.163738 624.56073 1541.669304 618.121223 c
stroke
grestore
gsave
1528.738999 627.713263 m
1541.669304 618.121223 l
1526.23749 613.532203 l
stroke
grestore
0.000 setgray
gsave
1357.860362 634.546318 translate
0.000000 rotate
0.000000 0.000000 m /five glyphshow
22.904297 0.000000 m /zero glyphshow
45.808594 0.000000 m /zero glyphshow
grestore
1.000 0.000 0.000 setrgbcolor
gsave
1127.18507 681.09427 m
1269.193818 664.206478 1410.832496 647.362696 1552.101103 630.562923 c
stroke
grestore
gsave
1538.652097 639.413023 m
1552.101103 630.562923 l
1536.95162 625.113779 l
stroke
grestore
0.000 setgray
gsave
1053.979110 675.776436 translate
0.000000 rotate
0.000000 0.000000 m /five glyphshow
22.904297 0.000000 m /one glyphshow
45.808594 0.000000 m /two glyphshow
grestore
1.000 0.000 0.000 setrgbcolor
gsave
1300.780482 604.571739 m
1384.930908 618.957269 1468.713984 633.28 1552.129711 647.539934 c
stroke
grestore
gsave
1536.72238 652.210496 m
1552.129711 647.539934 l
1539.148863 638.016407 l
stroke
grestore
0.000 setgray
gsave
1227.596409 587.997149 translate
0.000000 rotate
0.000000 0.000000 m /five glyphshow
22.904297 0.000000 m /two glyphshow
45.808594 0.000000 m /nine glyphshow
grestore
1.000 0.000 0.000 setrgbcolor
gsave
1521.578844 768.902198 m
1532.314603 779.659622 1542.787105 790.153257 1552.99635 800.383103 c
stroke
grestore
gsave
1537.727983 795.276542 m
1552.99635 800.383103 l
1547.920579 785.104473 l
stroke
grestore
0.000 setgray
gsave
1465.927500 737.629763 translate
0.000000 rotate
0.000000 0.000000 m /six glyphshow
22.904297 0.000000 m /seven glyphshow
45.808594 0.000000 m /six glyphshow
grestore
1.000 0.000 0.000 setrgbcolor
gsave
1342.223294 806.152863 m
1405.573357 807.405252 1468.550816 808.650276 1531.155669 809.887933 c
stroke
grestore
gsave
1516.616171 816.801903 m
1531.155669 809.887933 l
1516.900794 802.404716 l
stroke
grestore
0.000 setgray
gsave
1269.007144 795.447189 translate
0.000000 rotate
0.000000 0.000000 m /six glyphshow
22.904297 0.000000 m /eight glyphshow
45.808594 0.000000 m /three glyphshow
grestore

end
showpage
