        Placement Information by Core
        =============================

Generated: Mon Jul 31 13:16:57 2017 for target machine '192.168.240.1'

**** Chip: (0, 0)
Application cores: 18
  Processor 1: Vertex: 'Population 0', pop sz: 700
              Slice on this core: 0:699 (700 atoms)
              Model: SpikeSourceArray


  Processor 2: Vertex: 'inputneurons', pop sz: 700
              Slice on this core: 0:254 (255 atoms)
              Model: IF_curr_exp


  Processor 3: Vertex: 'inputneurons', pop sz: 700
              Slice on this core: 255:509 (255 atoms)
              Model: IF_curr_exp


  Processor 4: Vertex: 'inputneurons', pop sz: 700
              Slice on this core: 510:699 (190 atoms)
              Model: IF_curr_exp


  Processor 5: Vertex: 'outputneuron', pop sz: 3
              Slice on this core: 0:2 (3 atoms)
              Model: IF_curr_exp


  Processor 6: Vertex: 'Inhibitory', pop sz: 3
              Slice on this core: 0:2 (3 atoms)
              Model: IF_curr_exp


  Processor 7: Vertex: 'Population 1', pop sz: 700
              Slice on this core: 0:255 (256 atoms)
              Model: SpikeSourcePoisson


  Processor 8: Vertex: 'Population 1', pop sz: 700
              Slice on this core: 256:511 (256 atoms)
              Model: SpikeSourcePoisson


  Processor 9: Vertex: 'Population 1', pop sz: 700
              Slice on this core: 512:699 (188 atoms)
              Model: SpikeSourcePoisson


  Processor 10: Vertex: 'Population 2', pop sz: 700
              Slice on this core: 0:255 (256 atoms)
              Model: SpikeSourcePoisson


  Processor 11: Vertex: 'Population 2', pop sz: 700
              Slice on this core: 256:511 (256 atoms)
              Model: SpikeSourcePoisson


  Processor 12: Vertex: 'Population 2', pop sz: 700
              Slice on this core: 512:699 (188 atoms)
              Model: SpikeSourcePoisson


  Processor 13: Vertex: 'Population 3', pop sz: 700
              Slice on this core: 0:255 (256 atoms)
              Model: SpikeSourcePoisson


  Processor 14: Vertex: 'Population 3', pop sz: 700
              Slice on this core: 256:511 (256 atoms)
              Model: SpikeSourcePoisson


  Processor 15: Vertex: 'Population 3', pop sz: 700
              Slice on this core: 512:699 (188 atoms)
              Model: SpikeSourcePoisson


  Processor 16: Vertex: 'Population 4', pop sz: 700
              Slice on this core: 0:255 (256 atoms)
              Model: SpikeSourcePoisson


**** Chip: (1, 0)
Application cores: 18
  Processor 1: Vertex: 'Population 4', pop sz: 700
              Slice on this core: 256:511 (256 atoms)
              Model: SpikeSourcePoisson


  Processor 2: Vertex: 'Population 4', pop sz: 700
              Slice on this core: 512:699 (188 atoms)
              Model: SpikeSourcePoisson


  Processor 3: Vertex: 'Population 5', pop sz: 700
              Slice on this core: 0:255 (256 atoms)
              Model: SpikeSourcePoisson


  Processor 4: Vertex: 'Population 5', pop sz: 700
              Slice on this core: 256:511 (256 atoms)
              Model: SpikeSourcePoisson


  Processor 5: Vertex: 'Population 5', pop sz: 700
              Slice on this core: 512:699 (188 atoms)
              Model: SpikeSourcePoisson


  Processor 6: Vertex: 'Population 6', pop sz: 700
              Slice on this core: 0:255 (256 atoms)
              Model: SpikeSourcePoisson


  Processor 7: Vertex: 'Population 6', pop sz: 700
              Slice on this core: 256:511 (256 atoms)
              Model: SpikeSourcePoisson


  Processor 8: Vertex: 'Population 6', pop sz: 700
              Slice on this core: 512:699 (188 atoms)
              Model: SpikeSourcePoisson


  Processor 9: Vertex: 'Population 7', pop sz: 700
              Slice on this core: 0:255 (256 atoms)
              Model: SpikeSourcePoisson


  Processor 10: Vertex: 'Population 7', pop sz: 700
              Slice on this core: 256:511 (256 atoms)
              Model: SpikeSourcePoisson


  Processor 11: Vertex: 'Population 7', pop sz: 700
              Slice on this core: 512:699 (188 atoms)
              Model: SpikeSourcePoisson


  Processor 12: Vertex: 'Population 8', pop sz: 700
              Slice on this core: 0:255 (256 atoms)
              Model: SpikeSourcePoisson


  Processor 13: Vertex: 'Population 8', pop sz: 700
              Slice on this core: 256:511 (256 atoms)
              Model: SpikeSourcePoisson


  Processor 14: Vertex: 'Population 8', pop sz: 700
              Slice on this core: 512:699 (188 atoms)
              Model: SpikeSourcePoisson


  Processor 15: Vertex: 'Population 9', pop sz: 700
              Slice on this core: 0:255 (256 atoms)
              Model: SpikeSourcePoisson


  Processor 16: Vertex: 'Population 9', pop sz: 700
              Slice on this core: 256:511 (256 atoms)
              Model: SpikeSourcePoisson


**** Chip: (1, 1)
Application cores: 17
  Processor 1: Vertex: 'Population 9', pop sz: 700
              Slice on this core: 512:699 (188 atoms)
              Model: SpikeSourcePoisson


