Subvert: Population 0:0:699 
subedge:PartitionedEdge:Population 0:0:699->inputneurons:510:699, keys_and_masks:[KeyAndMask:0x0L:0xfffffc00] 
subedge:PartitionedEdge:Population 0:0:699->inputneurons:0:254, keys_and_masks:[KeyAndMask:0x0L:0xfffffc00] 
subedge:PartitionedEdge:Population 0:0:699->inputneurons:255:509, keys_and_masks:[KeyAndMask:0x0L:0xfffffc00] 


Subvert: inputneurons:0:254 
subedge:PartitionedEdge:inputneurons:0:254->outputneuron:0:2, keys_and_masks:[KeyAndMask:0x400L:0xffffff00] 


Subvert: inputneurons:255:509 
subedge:PartitionedEdge:inputneurons:255:509->outputneuron:0:2, keys_and_masks:[KeyAndMask:0x500L:0xffffff00] 


Subvert: inputneurons:510:699 
subedge:PartitionedEdge:inputneurons:510:699->outputneuron:0:2, keys_and_masks:[KeyAndMask:0x600L:0xffffff00] 


Subvert: outputneuron:0:2 
subedge:PartitionedEdge:outputneuron:0:2->Inhibitory:0:2, keys_and_masks:[KeyAndMask:0x700L:0xfffffffc] 


Subvert: Inhibitory:0:2 
subedge:PartitionedEdge:Inhibitory:0:2->outputneuron:0:2, keys_and_masks:[KeyAndMask:0x704L:0xfffffffc] 


Subvert: Population 1:0:255 
subedge:PartitionedEdge:Population 1:0:255->inputneurons:0:254, keys_and_masks:[KeyAndMask:0x800L:0xffffff00] 
subedge:PartitionedEdge:Population 1:0:255->inputneurons:255:509, keys_and_masks:[KeyAndMask:0x800L:0xffffff00] 


Subvert: Population 1:256:511 
subedge:PartitionedEdge:Population 1:256:511->inputneurons:510:699, keys_and_masks:[KeyAndMask:0x900L:0xffffff00] 
subedge:PartitionedEdge:Population 1:256:511->inputneurons:255:509, keys_and_masks:[KeyAndMask:0x900L:0xffffff00] 


Subvert: Population 1:512:699 
subedge:PartitionedEdge:Population 1:512:699->inputneurons:510:699, keys_and_masks:[KeyAndMask:0xa00L:0xffffff00] 


Subvert: Population 2:0:255 
subedge:PartitionedEdge:Population 2:0:255->inputneurons:0:254, keys_and_masks:[KeyAndMask:0xb00L:0xffffff00] 
subedge:PartitionedEdge:Population 2:0:255->inputneurons:255:509, keys_and_masks:[KeyAndMask:0xb00L:0xffffff00] 


Subvert: Population 2:256:511 
subedge:PartitionedEdge:Population 2:256:511->inputneurons:510:699, keys_and_masks:[KeyAndMask:0xc00L:0xffffff00] 
subedge:PartitionedEdge:Population 2:256:511->inputneurons:255:509, keys_and_masks:[KeyAndMask:0xc00L:0xffffff00] 


Subvert: Population 2:512:699 
subedge:PartitionedEdge:Population 2:512:699->inputneurons:510:699, keys_and_masks:[KeyAndMask:0xd00L:0xffffff00] 


Subvert: Population 3:0:255 
subedge:PartitionedEdge:Population 3:0:255->inputneurons:0:254, keys_and_masks:[KeyAndMask:0xe00L:0xffffff00] 
subedge:PartitionedEdge:Population 3:0:255->inputneurons:255:509, keys_and_masks:[KeyAndMask:0xe00L:0xffffff00] 


Subvert: Population 3:256:511 
subedge:PartitionedEdge:Population 3:256:511->inputneurons:510:699, keys_and_masks:[KeyAndMask:0xf00L:0xffffff00] 
subedge:PartitionedEdge:Population 3:256:511->inputneurons:255:509, keys_and_masks:[KeyAndMask:0xf00L:0xffffff00] 


Subvert: Population 3:512:699 
subedge:PartitionedEdge:Population 3:512:699->inputneurons:510:699, keys_and_masks:[KeyAndMask:0x1000L:0xffffff00] 


Subvert: Population 4:0:255 
subedge:PartitionedEdge:Population 4:0:255->inputneurons:0:254, keys_and_masks:[KeyAndMask:0x1100L:0xffffff00] 
subedge:PartitionedEdge:Population 4:0:255->inputneurons:255:509, keys_and_masks:[KeyAndMask:0x1100L:0xffffff00] 


Subvert: Population 4:256:511 
subedge:PartitionedEdge:Population 4:256:511->inputneurons:510:699, keys_and_masks:[KeyAndMask:0x1200L:0xffffff00] 
subedge:PartitionedEdge:Population 4:256:511->inputneurons:255:509, keys_and_masks:[KeyAndMask:0x1200L:0xffffff00] 


Subvert: Population 4:512:699 
subedge:PartitionedEdge:Population 4:512:699->inputneurons:510:699, keys_and_masks:[KeyAndMask:0x1300L:0xffffff00] 


Subvert: Population 5:0:255 
subedge:PartitionedEdge:Population 5:0:255->inputneurons:0:254, keys_and_masks:[KeyAndMask:0x1400L:0xffffff00] 
subedge:PartitionedEdge:Population 5:0:255->inputneurons:255:509, keys_and_masks:[KeyAndMask:0x1400L:0xffffff00] 


Subvert: Population 5:256:511 
subedge:PartitionedEdge:Population 5:256:511->inputneurons:510:699, keys_and_masks:[KeyAndMask:0x1500L:0xffffff00] 
subedge:PartitionedEdge:Population 5:256:511->inputneurons:255:509, keys_and_masks:[KeyAndMask:0x1500L:0xffffff00] 


Subvert: Population 5:512:699 
subedge:PartitionedEdge:Population 5:512:699->inputneurons:510:699, keys_and_masks:[KeyAndMask:0x1600L:0xffffff00] 


Subvert: Population 6:0:255 
subedge:PartitionedEdge:Population 6:0:255->inputneurons:0:254, keys_and_masks:[KeyAndMask:0x1700L:0xffffff00] 
subedge:PartitionedEdge:Population 6:0:255->inputneurons:255:509, keys_and_masks:[KeyAndMask:0x1700L:0xffffff00] 


Subvert: Population 6:256:511 
subedge:PartitionedEdge:Population 6:256:511->inputneurons:510:699, keys_and_masks:[KeyAndMask:0x1800L:0xffffff00] 
subedge:PartitionedEdge:Population 6:256:511->inputneurons:255:509, keys_and_masks:[KeyAndMask:0x1800L:0xffffff00] 


Subvert: Population 6:512:699 
subedge:PartitionedEdge:Population 6:512:699->inputneurons:510:699, keys_and_masks:[KeyAndMask:0x1900L:0xffffff00] 


Subvert: Population 7:0:255 
subedge:PartitionedEdge:Population 7:0:255->inputneurons:0:254, keys_and_masks:[KeyAndMask:0x1a00L:0xffffff00] 
subedge:PartitionedEdge:Population 7:0:255->inputneurons:255:509, keys_and_masks:[KeyAndMask:0x1a00L:0xffffff00] 


Subvert: Population 7:256:511 
subedge:PartitionedEdge:Population 7:256:511->inputneurons:510:699, keys_and_masks:[KeyAndMask:0x1b00L:0xffffff00] 
subedge:PartitionedEdge:Population 7:256:511->inputneurons:255:509, keys_and_masks:[KeyAndMask:0x1b00L:0xffffff00] 


Subvert: Population 7:512:699 
subedge:PartitionedEdge:Population 7:512:699->inputneurons:510:699, keys_and_masks:[KeyAndMask:0x1c00L:0xffffff00] 


Subvert: Population 8:0:255 
subedge:PartitionedEdge:Population 8:0:255->inputneurons:0:254, keys_and_masks:[KeyAndMask:0x1d00L:0xffffff00] 
subedge:PartitionedEdge:Population 8:0:255->inputneurons:255:509, keys_and_masks:[KeyAndMask:0x1d00L:0xffffff00] 


Subvert: Population 8:256:511 
subedge:PartitionedEdge:Population 8:256:511->inputneurons:510:699, keys_and_masks:[KeyAndMask:0x1e00L:0xffffff00] 
subedge:PartitionedEdge:Population 8:256:511->inputneurons:255:509, keys_and_masks:[KeyAndMask:0x1e00L:0xffffff00] 


Subvert: Population 8:512:699 
subedge:PartitionedEdge:Population 8:512:699->inputneurons:510:699, keys_and_masks:[KeyAndMask:0x1f00L:0xffffff00] 


Subvert: Population 9:0:255 
subedge:PartitionedEdge:Population 9:0:255->inputneurons:0:254, keys_and_masks:[KeyAndMask:0x2000L:0xffffff00] 
subedge:PartitionedEdge:Population 9:0:255->inputneurons:255:509, keys_and_masks:[KeyAndMask:0x2000L:0xffffff00] 


Subvert: Population 9:256:511 
subedge:PartitionedEdge:Population 9:256:511->inputneurons:510:699, keys_and_masks:[KeyAndMask:0x2100L:0xffffff00] 
subedge:PartitionedEdge:Population 9:256:511->inputneurons:255:509, keys_and_masks:[KeyAndMask:0x2100L:0xffffff00] 


Subvert: Population 9:512:699 
subedge:PartitionedEdge:Population 9:512:699->inputneurons:510:699, keys_and_masks:[KeyAndMask:0x2200L:0xffffff00] 


